[
  {
    "normalForm": "iadflingo",
    "id": 487
  },
  {
    "normalForm": "iro",
    "id": 488
  },
  {
    "normalForm": "is-deitlo",
    "id": 489
  },
  {
    "normalForm": "is-teitlo",
    "id": 490
  },
  {
    "normalForm": "isdeitlo",
    "id": 491
  },
  {
    "normalForm": "isrannu",
    "id": 492
  },
  {
    "normalForm": "isteitlo",
    "id": 493
  },
  {
    "normalForm": "insiwrio",
    "id": 970,
    "translations": [ "to insure" ]
  },
  {
    "normalForm": "ireiddio",
    "id": 1082,
    "translations": [ "to refresh" ]
  },
  {
    "normalForm": "isosod",
    "id": 1186,
    "translations": [ "to sublet" ]
  },
  {
    "normalForm": "impio",
    "id": 1273,
    "translations": [ "to graft" ]
  },
  {
    "normalForm": "ieuo",
    "id": 1336,
    "translations": [ "to yoke" ]
  },
  {
    "normalForm": "imwneiddio",
    "id": 1435,
    "translations": [ "to immunise" ]
  },
  {
    "normalForm": "ildio",
    "id": 1469,
    "translations": [ "to yield" ]
  },
  {
    "normalForm": "igamogamu",
    "id": 1573,
    "translations": [ "to zigzag" ]
  },
  {
    "normalForm": "inswleiddio",
    "id": 1845,
    "translations": [ "to insulate" ]
  },
  {
    "normalForm": "igian",
    "id": 1974,
    "translations": [ "to hiccup" ]
  },
  {
    "normalForm": "iengeiddio",
    "id": 2107,
    "translations": [ "to rejuvenate" ]
  },
  {
    "normalForm": "integreiddio",
    "id": 2221,
    "translations": [ "to integrate" ]
  },
  {
    "normalForm": "iachaf",
    "id": 2370,
    "translations": [ "to heal" ]
  },
  {
    "normalForm": "iteru",
    "id": 2471,
    "translations": [ "to iterate" ]
  },
  {
    "normalForm": "indemnio",
    "id": 2897,
    "translations": [ "to indemnify" ]
  },
  {
    "normalForm": "iselhau",
    "stem": "iselhau",
    "id": 2945,
    "translations": [ "to lower" ]
  },
  {
    "normalForm": "isgilio",
    "id": 3091,
    "translations": [ "to ride as passenger" ]
  },
  {
    "normalForm": "islythrennu",
    "id": 3306,
    "translations": [ "to make lower-case" ]
  },
  {
    "normalForm": "iasu",
    "id": 3366,
    "translations": [ "to simmer" ]
  },
  {
    "normalForm": "iselu",
    "id": 3556,
    "translations": [ "to lower" ]
  },
  {
    "normalForm": "insbecto",
    "id": 3679,
    "translations": [ "to inspect" ]
  },
  {
    "normalForm": "insistio",
    "id": 3753,
    "translations": [ "to insist" ]
  },
  {
    "normalForm": "israddio",
    "id": 4109,
    "translations": [ "to degrade" ]
  },
  {
    "normalForm": "iwsio",
    "id": 4316,
    "translations": [ "to use" ]
  }
]