[
  {
    "normalForm": "nabod",
    "id": 38,
    "translations": [ "to know:2" ],
    "related": [
      37
    ],
    "stem": "nabydd",
    "preterite": {
      "has": false
    },
    "imperative": {
      "has": false
    }
  },
  {
    "normalForm": "nacáu",
    "id": 573
  },
  {
    "normalForm": "negeseua",
    "id": 574
  },
  {
    "normalForm": "neidio",
    "id": 575
  },
  {
    "normalForm": "neilltuo",
    "id": 576
  },
  {
    "normalForm": "newid",
    "id": 577,
    "stem": "newidi"
  },
  {
    "normalForm": "nithio",
    "id": 578
  },
  {
    "normalForm": "niweidio",
    "id": 579
  },
  {
    "normalForm": "nodi",
    "id": 580
  },
  {
    "normalForm": "nofio",
    "id": 581
  },
  {
    "normalForm": "nôl",
    "id": 582
  },
  {
    "normalForm": "nyddu",
    "id": 583
  },
  {
    "normalForm": "nythu",
    "id": 584
  },
  {
    "normalForm": "nawddogi",
    "id": 883,
    "translations": [ "to sponsor" ]
  },
  {
    "normalForm": "normaleiddio",
    "id": 899,
    "translations": [ "to normalise" ]
  },
  {
    "normalForm": "nadreddu",
    "id": 965,
    "translations": [ "to snake" ]
  },
  {
    "normalForm": "noswylio",
    "id": 1445,
    "translations": [ "to rest at night" ]
  },
  {
    "normalForm": "niwlo",
    "id": 1616,
    "translations": [ "to fog" ]
  },
  {
    "normalForm": "nacâf",
    "id": 1659,
    "translations": [ "to refuse" ]
  },
  {
    "normalForm": "newynu",
    "id": 1684,
    "translations": [ "to starve" ]
  },
  {
    "normalForm": "nefoli",
    "id": 1706,
    "translations": [ "to sanctify" ]
  },
  {
    "normalForm": "niwtraleiddio",
    "id": 2053,
    "translations": [ "to neutralise" ]
  },
  {
    "normalForm": "nesu",
    "id": 2086,
    "translations": [ "to approach" ]
  },
  {
    "normalForm": "nuddo",
    "id": 2105,
    "translations": [ "to bank up" ]
  },
  {
    "normalForm": "negyddu",
    "id": 2184,
    "translations": [ "to negate" ]
  },
  {
    "normalForm": "newyddiadura",
    "id": 2314,
    "translations": [ "to be a journalist" ]
  },
  {
    "normalForm": "nerthu",
    "id": 2333,
    "translations": [ "to strengthen" ]
  },
  {
    "normalForm": "noethi",
    "id": 2421,
    "translations": [ "to strip" ]
  },
  {
    "normalForm": "nosi",
    "id": 2745,
    "translations": [ "to become night" ]
  },
  {
    "normalForm": "newyddu",
    "id": 2808,
    "translations": [ "to renew" ]
  },
  {
    "normalForm": "nodweddu",
    "id": 3012,
    "translations": [ "to characterise" ]
  },
  {
    "normalForm": "naddu",
    "id": 3123,
    "translations": [ "to carve" ]
  },
  {
    "normalForm": "negesa",
    "id": 3277,
    "translations": [ "to run a message" ]
  },
  {
    "normalForm": "noddi",
    "id": 3304,
    "translations": [ "to patronise" ]
  },
  {
    "normalForm": "neilltuoli",
    "id": 3370,
    "translations": [ "to differentiate" ]
  },
  {
    "normalForm": "nwyeiddio",
    "id": 3480,
    "translations": [ "to gasify" ]
  },
  {
    "normalForm": "newidio",
    "id": 3599,
    "translations": [ "to change" ]
  },
  {
    "normalForm": "nogio",
    "id": 3718,
    "translations": [ "to tire" ]
  },
  {
    "normalForm": "negodi",
    "id": 3795,
    "translations": [ "to negotiate" ]
  },
  {
    "normalForm": "nadu",
    "id": 3906,
    "translations": [ "to hinder" ]
  },
  {
    "normalForm": "nawseiddio",
    "id": 4227,
    "translations": [ "to soften" ]
  },
  {
    "normalForm": "nychu",
    "id": 4348,
    "translations": [ "to vex" ]
  },
  {
    "normalForm": "nyrsio",
    "id": 4427,
    "translations": [ "to nurse" ]
  },
  {
    "normalForm": "niwtralu",
    "id": 4557,
    "translations": [ "to neutralize" ]
  },
  {
    "normalForm": "notisio",
    "id": 4640,
    "translations": [ "to notice" ]
  }
]