[
  {
    "normalForm": "saethu",
    "id": 657
  },
  {
    "normalForm": "sbleisio",
    "id": 658
  },
  {
    "normalForm": "sefydlogi",
    "id": 659
  },
  {
    "normalForm": "sefydlu",
    "id": 660
  },
  {
    "normalForm": "sefyll",
    "id": 661,
    "stem": "saf",
    "imperative": {
      "singSecond": "saf"
    }
  },
  {
    "normalForm": "seiclo",
    "id": 662
  },
  {
    "normalForm": "seinio",
    "id": 663
  },
  {
    "normalForm": "sgrechian",
    "id": 664
  },
  {
    "normalForm": "sgrinio",
    "id": 665
  },
  {
    "normalForm": "sgubo",
    "id": 666
  },
  {
    "normalForm": "sgwlio",
    "id": 667
  },
  {
    "normalForm": "sgwrsio",
    "id": 668
  },
  {
    "normalForm": "shrwmsa",
    "id": 669
  },
  {
    "normalForm": "siafio",
    "id": 670
  },
  {
    "normalForm": "siarad",
    "id": 671,
    "translations": [ "to talk", "to speak" ]
  },
  {
    "normalForm": "sicrhau",
    "id": 672
  },
  {
    "normalForm": "sillafu",
    "id": 673
  },
  {
    "normalForm": "siopa",
    "id": 674
  },
  {
    "normalForm": "smwddio",
    "id": 675
  },
  {
    "normalForm": "smygu",
    "id": 676
  },
  {
    "normalForm": "soddi",
    "id": 677
  },
  {
    "normalForm": "sôn",
    "id": 678
  },
  {
    "normalForm": "spleinsio",
    "id": 679
  },
  {
    "normalForm": "stopio",
    "id": 680
  },
  {
    "normalForm": "streicio",
    "id": 681
  },
  {
    "normalForm": "switsio",
    "id": 682
  },
  {
    "normalForm": "swyno",
    "id": 683
  },
  {
    "normalForm": "sychu",
    "id": 684
  },
  {
    "normalForm": "syflyd",
    "id": 685
  },
  {
    "normalForm": "sylwebu",
    "id": 686
  },
  {
    "normalForm": "sylwi",
    "id": 687
  },
  {
    "normalForm": "syllta",
    "id": 688
  },
  {
    "normalForm": "syllu",
    "id": 689
  },
  {
    "normalForm": "symud",
    "id": 690,
    "etymology": "From Latin summūtō."
  },
  {
    "normalForm": "synio",
    "id": 691
  },
  {
    "normalForm": "synnu",
    "id": 692
  },
  {
    "normalForm": "syrthio",
    "id": 693
  },
  {
    "normalForm": "stabio",
    "id": 799,
    "translations": [ "to stab" ]
  },
  {
    "normalForm": "sialensio",
    "id": 814,
    "translations": [ "to challenge" ]
  },
  {
    "normalForm": "sbwlio",
    "id": 817,
    "translations": [ "to spool" ]
  },
  {
    "normalForm": "sgradan",
    "id": 847,
    "translations": [ "to scream" ]
  },
  {
    "normalForm": "syfrdanu",
    "id": 878,
    "translations": [ "to astound" ]
  },
  {
    "normalForm": "syntheseisio",
    "id": 882,
    "translations": [ "to synthesize" ]
  },
  {
    "normalForm": "stwnsio",
    "id": 908,
    "translations": [ "to mash" ]
  },
  {
    "normalForm": "stocio",
    "id": 913,
    "translations": [ "to stock" ]
  },
  {
    "normalForm": "stryglo",
    "id": 924,
    "translations": [ "to struggle" ]
  },
  {
    "normalForm": "sacio",
    "id": 938,
    "translations": [ "to sack" ]
  },
  {
    "normalForm": "sawrio",
    "id": 947,
    "translations": [ "to smell" ]
  },
  {
    "normalForm": "smalio",
    "id": 973,
    "translations": [ "to joke" ]
  },
  {
    "normalForm": "slotian",
    "id": 984,
    "translations": [ "to tipple" ]
  },
  {
    "normalForm": "sbredio",
    "id": 988,
    "translations": [ "to spread" ]
  },
  {
    "normalForm": "styrbio",
    "id": 1003,
    "translations": [ "to disturb" ]
  },
  {
    "normalForm": "stryffaglio",
    "id": 1007,
    "translations": [ "to stumble along" ]
  },
  {
    "normalForm": "sblitio",
    "id": 1012,
    "translations": [ "to split" ]
  },
  {
    "normalForm": "sbrintio",
    "id": 1037,
    "translations": [ "to sprint" ]
  },
  {
    "normalForm": "sylfaenu",
    "id": 1064,
    "translations": [ "to base" ]
  },
  {
    "normalForm": "serchu",
    "id": 1068,
    "translations": [ "to love" ]
  },
  {
    "normalForm": "starto",
    "id": 1081,
    "translations": [ "to begin" ]
  },
  {
    "normalForm": "siapo",
    "id": 1091,
    "translations": [ "to shape" ]
  },
  {
    "normalForm": "starfio",
    "id": 1093,
    "translations": [ "to hunger" ]
  },
  {
    "normalForm": "sgaffaldio",
    "id": 1108,
    "translations": [ "to erect scaffolding" ]
  },
  {
    "normalForm": "stampio",
    "id": 1115,
    "translations": [ "to stamp" ]
  },
  {
    "normalForm": "syrfio",
    "id": 1124,
    "translations": [ "to serve" ]
  },
  {
    "normalForm": "symbylio",
    "id": 1127,
    "translations": [ "to motivate" ]
  },
  {
    "normalForm": "syportio",
    "id": 1164,
    "translations": [ "to support" ]
  },
  {
    "normalForm": "siocio",
    "id": 1196,
    "translations": [ "to shock" ]
  },
  {
    "normalForm": "sbio",
    "stem": "sbii",
    "id": 1209,
    "translations": [ "to look" ]
  },
  {
    "normalForm": "sefyllu",
    "id": 1229,
    "translations": [ "to loiter" ]
  },
  {
    "normalForm": "strwythuro",
    "id": 1246,
    "translations": [ "to structure" ]
  },
  {
    "normalForm": "stryglan",
    "id": 1256,
    "translations": [ "to struggle" ]
  },
  {
    "normalForm": "siafo",
    "id": 1308,
    "translations": [ "to shave" ]
  },
  {
    "normalForm": "stacio",
    "id": 1317,
    "translations": [ "to stack" ]
  },
  {
    "normalForm": "sidyllio",
    "id": 1334,
    "translations": [ "to revolve" ]
  },
  {
    "normalForm": "sgwyrtio",
    "id": 1350,
    "translations": [ "to squirt" ]
  },
  {
    "normalForm": "seibio",
    "id": 1356,
    "translations": [ "to pause" ]
  },
  {
    "normalForm": "sglaffio",
    "id": 1361,
    "translations": [ "to devour" ]
  },
  {
    "normalForm": "sobri",
    "id": 1362,
    "translations": [ "to sober up" ]
  },
  {
    "normalForm": "sengi",
    "stem": "sang",
    "id": 1365,
    "translations": [ "to trample" ]
  },
  {
    "normalForm": "stwytho",
    "id": 1370,
    "translations": [ "to ease" ]
  },
  {
    "normalForm": "suddo",
    "id": 1378,
    "translations": [ "to sink" ]
  },
  {
    "normalForm": "seguro",
    "id": 1404,
    "translations": [ "to idle" ]
  },
  {
    "normalForm": "segura",
    "id": 1414,
    "translations": [ "to idle" ]
  },
  {
    "normalForm": "simsanu",
    "id": 1428,
    "translations": [ "to totter" ]
  },
  {
    "normalForm": "styrio",
    "id": 1439,
    "translations": [ "to stir" ]
  },
  {
    "normalForm": "sniffio",
    "id": 1447,
    "translations": [ "to sniff" ]
  },
  {
    "normalForm": "sgathru",
    "id": 1466,
    "translations": [ "to cut" ]
  },
  {
    "normalForm": "swsio",
    "id": 1467,
    "translations": [ "to kiss" ]
  },
  {
    "normalForm": "stigmateiddio",
    "id": 1476,
    "translations": [ "to stigmatise" ]
  },
  {
    "normalForm": "swperu",
    "id": 1484,
    "translations": [ "to eat supper" ]
  },
  {
    "normalForm": "sennu",
    "id": 1487,
    "translations": [ "to taunt" ]
  },
  {
    "normalForm": "swpera",
    "id": 1493,
    "translations": [ "to eat supper" ]
  },
  {
    "normalForm": "slotio",
    "id": 1503,
    "translations": [ "to slot" ]
  },
  {
    "normalForm": "stripio",
    "id": 1519,
    "translations": [ "to strip" ]
  },
  {
    "normalForm": "siwtio",
    "id": 1547,
    "translations": [ "to suit" ]
  },
  {
    "normalForm": "sarnu",
    "stem": "sern",
    "id": 1552,
    "translations": [ "to spill" ]
  },
  {
    "normalForm": "stido",
    "id": 1561,
    "translations": [ "to hit" ]
  },
  {
    "normalForm": "sediwsio",
    "id": 1592,
    "translations": [ "to seduce" ]
  },
  {
    "normalForm": "sgïo",
    "id": 1599,
    "translations": [ "to ski" ]
  },
  {
    "normalForm": "shrincio",
    "id": 1647,
    "translations": [ "to shrink" ]
  },
  {
    "normalForm": "sychdarthu",
    "id": 1663,
    "translations": [ "to sublimate" ]
  },
  {
    "normalForm": "steryllu",
    "id": 1666,
    "translations": [ "to sterilise" ]
  },
  {
    "normalForm": "smicio",
    "id": 1726,
    "translations": [ "to move" ]
  },
  {
    "normalForm": "sylweddoli",
    "id": 1731,
    "translations": [ "to realise" ]
  },
  {
    "normalForm": "sbidio",
    "id": 1737,
    "translations": [ "to speed" ]
  },
  {
    "normalForm": "snogio",
    "id": 1750,
    "translations": [ "to snog" ]
  },
  {
    "normalForm": "sleidio",
    "id": 1770,
    "translations": [ "to slide" ]
  },
  {
    "normalForm": "sypio",
    "id": 1789,
    "translations": [ "to bundle" ]
  },
  {
    "normalForm": "synied",
    "id": 1804,
    "translations": [ "to think" ]
  },
  {
    "normalForm": "smyglo",
    "id": 1806,
    "translations": [ "to smuggle" ]
  },
  {
    "normalForm": "sugno",
    "id": 1829,
    "translations": [ "to suck" ]
  },
  {
    "normalForm": "strapio",
    "id": 1860,
    "translations": [ "to strap" ]
  },
  {
    "normalForm": "sbydu",
    "id": 1863,
    "translations": [ "to empty" ]
  },
  {
    "normalForm": "sonio",
    "id": 1871,
    "translations": [ "to mention" ]
  },
  {
    "normalForm": "sgamio",
    "id": 1872,
    "translations": [ "to scheme" ]
  },
  {
    "normalForm": "swmpo",
    "id": 1876,
    "translations": [ "to fondle" ]
  },
  {
    "normalForm": "slapio",
    "id": 1934,
    "translations": [ "to slap" ]
  },
  {
    "normalForm": "sboilio",
    "id": 1972,
    "translations": [ "to spoil" ]
  },
  {
    "normalForm": "sgytian",
    "id": 1980,
    "translations": [ "to shake" ]
  },
  {
    "normalForm": "safnrhythu",
    "id": 2002,
    "translations": [ "to gape" ]
  },
  {
    "normalForm": "sgidio",
    "id": 2008,
    "translations": [ "to skid" ]
  },
  {
    "normalForm": "swopio",
    "id": 2010,
    "translations": [ "to swap" ]
  },
  {
    "normalForm": "sweio",
    "id": 2020,
    "translations": [ "to sway" ]
  },
  {
    "normalForm": "syncroneiddio",
    "id": 2028,
    "translations": [ "to synchronize" ]
  },
  {
    "normalForm": "saernïo",
    "stem": "saerni",
    "id": 2060,
    "translations": [ "to fashion" ]
  },
  {
    "normalForm": "safoni",
    "id": 2066,
    "translations": [ "to standardise" ]
  },
  {
    "normalForm": "sgyrnygu",
    "id": 2074,
    "translations": [ "to snarl" ]
  },
  {
    "normalForm": "sbreinio",
    "id": 2077,
    "translations": [ "to sprain" ]
  },
  {
    "normalForm": "seisnigo",
    "id": 2088,
    "translations": [ "to anglicise" ]
  },
  {
    "normalForm": "sbarduno",
    "id": 2112,
    "translations": [ "to spur" ]
  },
  {
    "normalForm": "sbwylio",
    "id": 2141,
    "translations": [ "to spoil" ]
  },
  {
    "normalForm": "sirioli",
    "id": 2145,
    "translations": [ "to gladden" ]
  },
  {
    "normalForm": "silio",
    "id": 2150,
    "translations": [ "to shell" ]
  },
  {
    "normalForm": "strymio",
    "id": 2182,
    "translations": [ "to strum" ]
  },
  {
    "normalForm": "startsio",
    "id": 2191,
    "translations": [ "to starch" ]
  },
  {
    "normalForm": "sgrechio",
    "id": 2197,
    "translations": [ "to scream" ]
  },
  {
    "normalForm": "sgrwbio",
    "id": 2199,
    "translations": [ "to scrub" ]
  },
  {
    "normalForm": "strancio",
    "id": 2201,
    "translations": [ "to throw a tantrum" ]
  },
  {
    "normalForm": "sgrialu",
    "id": 2222,
    "translations": [ "to scramble" ]
  },
  {
    "normalForm": "sgilio",
    "id": 2245,
    "translations": [ "to skill" ]
  },
  {
    "normalForm": "slantio",
    "id": 2252,
    "translations": [ "to slant" ]
  },
  {
    "normalForm": "swmio",
    "id": 2258,
    "translations": [ "to zoom" ]
  },
  {
    "normalForm": "sgrafellu",
    "id": 2269,
    "translations": [ "to scrape" ]
  },
  {
    "normalForm": "slipio",
    "id": 2274,
    "translations": [ "to slip" ]
  },
  {
    "normalForm": "suro",
    "id": 2287,
    "translations": [ "to sour" ]
  },
  {
    "normalForm": "stario",
    "id": 2296,
    "translations": [ "to stare" ]
  },
  {
    "normalForm": "sgriblo",
    "id": 2319,
    "translations": [ "to scribble" ]
  },
  {
    "normalForm": "sganio",
    "id": 2324,
    "translations": [ "to scan" ]
  },
  {
    "normalForm": "sypynio",
    "id": 2338,
    "translations": [ "to bundle" ]
  },
  {
    "normalForm": "snwffio",
    "id": 2360,
    "translations": [ "to sniffle" ]
  },
  {
    "normalForm": "sgrolio",
    "id": 2368,
    "translations": [ "to scroll" ]
  },
  {
    "normalForm": "stwffio",
    "id": 2399,
    "translations": [ "to stuff" ]
  },
  {
    "normalForm": "sïo",
    "stem": "si",
    "id": 2407,
    "translations": [ "to buzz" ]
  },
  {
    "normalForm": "syllio",
    "id": 2410,
    "translations": [ "to stare" ]
  },
  {
    "normalForm": "smocio",
    "id": 2415,
    "translations": [ "to smoke" ]
  },
  {
    "normalForm": "stelcian",
    "id": 2416,
    "translations": [ "to lurk" ]
  },
  {
    "normalForm": "sypynnu",
    "id": 2419,
    "translations": [ "to heap" ]
  },
  {
    "normalForm": "syjestio",
    "id": 2431,
    "translations": [ "to suggest" ]
  },
  {
    "normalForm": "sbotio",
    "id": 2434,
    "translations": [ "to spot" ]
  },
  {
    "normalForm": "sicro",
    "id": 2437,
    "translations": [ "to confirm" ]
  },
  {
    "normalForm": "stitsio",
    "id": 2438,
    "translations": [ "to stitch" ]
  },
  {
    "normalForm": "sboncio",
    "id": 2449,
    "translations": [ "to bounce" ]
  },
  {
    "normalForm": "sglefrolio",
    "id": 2456,
    "translations": [ "to rollerblading" ]
  },
  {
    "normalForm": "sledio",
    "id": 2459,
    "translations": [ "to sledge" ]
  },
  {
    "normalForm": "swancio",
    "id": 2470,
    "translations": [ "to show off" ]
  },
  {
    "normalForm": "swigio",
    "id": 2501,
    "translations": [ "to swig" ]
  },
  {
    "normalForm": "sadio",
    "id": 2517,
    "translations": [ "to stabilise" ]
  },
  {
    "normalForm": "seco",
    "id": 2527,
    "translations": [ "to sack" ]
  },
  {
    "normalForm": "sybachu",
    "id": 2532,
    "translations": [ "to shrivel" ]
  },
  {
    "normalForm": "stumogi",
    "id": 2554,
    "translations": [ "to stomach" ]
  },
  {
    "normalForm": "siario",
    "id": 2567,
    "translations": [ "to share" ]
  },
  {
    "normalForm": "swcro",
    "id": 2575,
    "translations": [ "to give refuge" ]
  },
  {
    "normalForm": "sidellu",
    "id": 2576,
    "translations": [ "to revolve" ]
  },
  {
    "normalForm": "sathru",
    "stem": "sethr",
    "id": 2615,
    "translations": [ "to trample" ]
  },
  {
    "normalForm": "solfio",
    "id": 2633,
    "translations": [ "to solve" ]
  },
  {
    "normalForm": "storio",
    "id": 2642,
    "translations": [ "to store" ]
  },
  {
    "normalForm": "swapio",
    "id": 2643,
    "translations": [ "to swap" ]
  },
  {
    "normalForm": "sifftio",
    "id": 2654,
    "translations": [ "to shift" ]
  },
  {
    "normalForm": "sgratsio",
    "id": 2666,
    "translations": [ "to scratch" ]
  },
  {
    "normalForm": "staenio",
    "id": 2678,
    "translations": [ "to stain" ]
  },
  {
    "normalForm": "sodro",
    "id": 2680,
    "translations": [ "to solder" ]
  },
  {
    "normalForm": "sobrio",
    "id": 2682,
    "translations": [ "to sober up" ]
  },
  {
    "normalForm": "sleifio",
    "id": 2685,
    "translations": [ "to sneak" ]
  },
  {
    "normalForm": "stemio",
    "id": 2690,
    "translations": [ "to stem" ]
  },
  {
    "normalForm": "sgimio",
    "id": 2702,
    "translations": [ "to skim" ]
  },
  {
    "normalForm": "sodli",
    "id": 2709,
    "translations": [ "to follow on the heel" ]
  },
  {
    "normalForm": "swagro",
    "id": 2725,
    "translations": [ "to swagger" ]
  },
  {
    "normalForm": "sarsio",
    "id": 2730,
    "translations": [ "to charge" ]
  },
  {
    "normalForm": "snochdian",
    "id": 2743,
    "translations": [ "to snort" ]
  },
  {
    "normalForm": "startio",
    "id": 2744,
    "translations": [ "to start" ]
  },
  {
    "normalForm": "sglefrio",
    "id": 2750,
    "translations": [ "to skate" ]
  },
  {
    "normalForm": "sgeipo",
    "id": 2753,
    "translations": [ "to fetter" ]
  },
  {
    "normalForm": "symlu",
    "id": 2773,
    "translations": [ "to urge" ]
  },
  {
    "normalForm": "siopio",
    "id": 2778,
    "translations": [ "to shop" ]
  },
  {
    "normalForm": "sibrwd",
    "stem": "sibryd",
    "id": 2786,
    "translations": [ "to whisper" ]
  },
  {
    "normalForm": "symio",
    "id": 2830,
    "translations": [ "to assess" ]
  },
  {
    "normalForm": "spwnjo",
    "id": 2833,
    "translations": [ "to sponge" ]
  },
  {
    "normalForm": "swingio",
    "id": 2851,
    "translations": [ "to swing" ]
  },
  {
    "normalForm": "stwna",
    "id": 2855,
    "translations": [ "to potter" ]
  },
  {
    "normalForm": "syrffedu",
    "id": 2857,
    "translations": [ "to be sick and tired of" ]
  },
  {
    "normalForm": "sychedu",
    "id": 2862,
    "translations": [ "to thirst" ]
  },
  {
    "normalForm": "siffrwd",
    "stem": "siffryd",
    "id": 2867,
    "translations": [ "to rustle" ]
  },
  {
    "normalForm": "siagio",
    "id": 2868,
    "translations": [ "to copulate" ]
  },
  {
    "normalForm": "strimio",
    "id": 2884,
    "translations": [ "to strim" ]
  },
  {
    "normalForm": "smwthio",
    "id": 2900,
    "translations": [ "to iron" ]
  },
  {
    "normalForm": "stydio",
    "id": 2924,
    "translations": [ "to study" ]
  },
  {
    "normalForm": "simsan",
    "stem": "simsan",
    "id": 2927,
    "translations": [ "to totter" ]
  },
  {
    "normalForm": "siwglo",
    "id": 2929,
    "translations": [ "to juggle" ]
  },
  {
    "normalForm": "sgaldio",
    "id": 2966,
    "translations": [ "to scald" ]
  },
  {
    "normalForm": "siarsio",
    "stem": "siari",
    "id": 2995,
    "translations": [ "to charge" ]
  },
  {
    "normalForm": "swsian",
    "id": 3001,
    "translations": [ "to kiss" ]
  },
  {
    "normalForm": "slamio",
    "id": 3018,
    "translations": [ "to slam" ]
  },
  {
    "normalForm": "secretu",
    "id": 3053,
    "translations": [ "to secrete" ]
  },
  {
    "normalForm": "sterio",
    "id": 3058,
    "translations": [ "to stare" ]
  },
  {
    "normalForm": "sgwlcan",
    "id": 3081,
    "translations": [ "to skulk" ]
  },
  {
    "normalForm": "slofi",
    "id": 3086,
    "translations": [ "to slow down" ]
  },
  {
    "normalForm": "sbelio",
    "id": 3090,
    "translations": [ "to spell" ]
  },
  {
    "normalForm": "swno",
    "id": 3097,
    "translations": [ "to sound" ]
  },
  {
    "normalForm": "siwio",
    "id": 3113,
    "translations": [ "to sue" ]
  },
  {
    "normalForm": "sgriblan",
    "id": 3115,
    "translations": [ "to scribble" ]
  },
  {
    "normalForm": "stereoteipio",
    "id": 3116,
    "translations": [ "to stereotype" ]
  },
  {
    "normalForm": "slwmbran",
    "id": 3134,
    "translations": [ "to doze" ]
  },
  {
    "normalForm": "seldremu",
    "id": 3161,
    "translations": [ "to lay in bundles" ]
  },
  {
    "normalForm": "snorclo",
    "id": 3162,
    "translations": [ "to snorkel" ]
  },
  {
    "normalForm": "sbïo",
    "stem": "sbi",
    "id": 3191,
    "translations": [ "to look" ]
  },
  {
    "normalForm": "salwaf",
    "id": 3206,
    "translations": [ "to abuse" ]
  },
  {
    "normalForm": "stagro",
    "id": 3213,
    "translations": [ "to stagger" ]
  },
  {
    "normalForm": "siwrhau",
    "stem": "siwrhe",
    "id": 3217,
    "translations": [ "to ensure" ]
  },
  {
    "normalForm": "snwffian",
    "id": 3252,
    "translations": [ "to sniff" ]
  },
  {
    "normalForm": "safio",
    "id": 3263,
    "translations": [ "to save" ]
  },
  {
    "normalForm": "soldro",
    "id": 3281,
    "translations": [ "to solder" ]
  },
  {
    "normalForm": "slobran",
    "id": 3291,
    "translations": [ "to slobber" ]
  },
  {
    "normalForm": "somi",
    "id": 3305,
    "translations": [ "to disappoint" ]
  },
  {
    "normalForm": "sianelu",
    "id": 3316,
    "translations": [ "to direct" ]
  },
  {
    "normalForm": "sioncio",
    "id": 3344,
    "translations": [ "to enliven" ]
  },
  {
    "normalForm": "sgrifennu",
    "id": 3359,
    "translations": [ "to write" ]
  },
  {
    "normalForm": "sawru",
    "id": 3378,
    "translations": [ "to smell" ]
  },
  {
    "normalForm": "swalpio",
    "id": 3408,
    "translations": [ "to wriggle" ]
  },
  {
    "normalForm": "symlhau",
    "id": 3448,
    "translations": [ "to simplify" ]
  },
  {
    "normalForm": "sarhau",
    "stem": "sarhe",
    "id": 3451,
    "translations": [ "to insult" ]
  },
  {
    "normalForm": "slochian",
    "id": 3463,
    "translations": [ "to booze" ]
  },
  {
    "normalForm": "sbario",
    "id": 3487,
    "translations": [ "to spare" ]
  },
  {
    "normalForm": "sbarcio",
    "id": 3492,
    "translations": [ "to spark" ]
  },
  {
    "normalForm": "sangu",
    "stem": "seng",
    "id": 3500,
    "translations": [ "to trample" ]
  },
  {
    "normalForm": "sgio",
    "id": 3504,
    "translations": [ "to ski" ]
  },
  {
    "normalForm": "sgowtio",
    "id": 3510,
    "translations": [ "to scout" ]
  },
  {
    "normalForm": "stiwio",
    "id": 3518,
    "translations": [ "to stew" ]
  },
  {
    "normalForm": "sgori",
    "id": 3541,
    "translations": [ "to score" ]
  },
  {
    "normalForm": "serennu",
    "id": 3547,
    "translations": [ "to sparkle" ]
  },
  {
    "normalForm": "swnan",
    "stem": "swni",
    "id": 3557,
    "translations": [ "to grumble" ]
  },
  {
    "normalForm": "sgegan",
    "id": 3559,
    "translations": [ "to scream" ]
  },
  {
    "normalForm": "sythu",
    "id": 3572,
    "translations": [ "to benumb" ]
  },
  {
    "normalForm": "siapio",
    "id": 3574,
    "translations": [ "to shape" ]
  },
  {
    "normalForm": "seino",
    "id": 3575,
    "translations": [ "to sign" ]
  },
  {
    "normalForm": "staffio",
    "id": 3580,
    "translations": [ "to staff" ]
  },
  {
    "normalForm": "sniffian",
    "id": 3582,
    "translations": [ "to sniff" ]
  },
  {
    "normalForm": "safnio",
    "id": 3588,
    "translations": [ "to devour" ]
  },
  {
    "normalForm": "sgaldian",
    "id": 3590,
    "translations": [ "to scald" ]
  },
  {
    "normalForm": "serio",
    "id": 3591,
    "translations": [ "to sear" ]
  },
  {
    "normalForm": "smelio",
    "id": 3592,
    "translations": [ "to smell" ]
  },
  {
    "normalForm": "swnio",
    "id": 3666,
    "translations": [ "to sound" ]
  },
  {
    "normalForm": "sieco",
    "id": 3695,
    "translations": [ "to check" ]
  },
  {
    "normalForm": "snapio",
    "id": 3699,
    "translations": [ "to snap" ]
  },
  {
    "normalForm": "sbecian",
    "id": 3739,
    "translations": [ "to peep" ]
  },
  {
    "normalForm": "sgriblian",
    "id": 3751,
    "translations": [ "to scribble" ]
  },
  {
    "normalForm": "sgorio",
    "id": 3752,
    "translations": [ "to score" ]
  },
  {
    "normalForm": "symleiddio",
    "id": 3773,
    "translations": [ "to simplify" ]
  },
  {
    "normalForm": "sorri",
    "id": 3788,
    "translations": [ "to sulk" ]
  },
  {
    "normalForm": "swotio",
    "id": 3796,
    "translations": [ "to swot" ]
  },
  {
    "normalForm": "seicio",
    "id": 3809,
    "translations": [ "to psych" ]
  },
  {
    "normalForm": "slacio",
    "id": 3813,
    "translations": [ "to decrease" ]
  },
  {
    "normalForm": "sensio",
    "id": 3814,
    "translations": [ "to sense" ]
  },
  {
    "normalForm": "sipian",
    "id": 3815,
    "translations": [ "to sip" ]
  },
  {
    "normalForm": "sanfaganeiddio",
    "id": 3851,
    "translations": [ "to turn into a museum piece" ]
  },
  {
    "normalForm": "straenio",
    "id": 3858,
    "translations": [ "to distrain" ]
  },
  {
    "normalForm": "swnian",
    "id": 3872,
    "translations": [ "to grumble" ]
  },
  {
    "normalForm": "swnial",
    "id": 3874,
    "translations": [ "to mutter" ]
  },
  {
    "normalForm": "solffeuo",
    "id": 3878,
    "translations": [ "to sing solfa" ]
  },
  {
    "normalForm": "seisnigeiddio",
    "id": 3895,
    "translations": [ "to anglicise" ]
  },
  {
    "normalForm": "serfio",
    "id": 3899,
    "translations": [ "to serve" ]
  },
  {
    "normalForm": "stilio",
    "id": 3907,
    "translations": [ "to distil" ]
  },
  {
    "normalForm": "sortio",
    "id": 3912,
    "translations": [ "to sort" ]
  },
  {
    "normalForm": "seboni",
    "id": 3931,
    "translations": [ "to soap" ]
  },
  {
    "normalForm": "sbinio",
    "id": 3947,
    "translations": [ "to spin" ]
  },
  {
    "normalForm": "seciwlareiddio",
    "id": 3967,
    "translations": [ "to secularize" ]
  },
  {
    "normalForm": "stepio",
    "id": 3970,
    "translations": [ "to step" ]
  },
  {
    "normalForm": "sisial",
    "id": 3996,
    "translations": [ "to murmur" ]
  },
  {
    "normalForm": "sgramo",
    "id": 4008,
    "translations": [ "to scratch" ]
  },
  {
    "normalForm": "synfyfyrio",
    "id": 4014,
    "translations": [ "to ponder" ]
  },
  {
    "normalForm": "sblasio",
    "id": 4021,
    "translations": [ "to splash" ]
  },
  {
    "normalForm": "stompio",
    "id": 4025,
    "translations": [ "to mash" ]
  },
  {
    "normalForm": "streio",
    "id": 4036,
    "translations": [ "to wander" ]
  },
  {
    "normalForm": "syflu",
    "id": 4051,
    "translations": [ "to shift" ]
  },
  {
    "normalForm": "swardio",
    "id": 4063,
    "translations": [ "to soil" ]
  },
  {
    "normalForm": "sowndio",
    "id": 4064,
    "translations": [ "to sound" ]
  },
  {
    "normalForm": "syrffio",
    "id": 4073,
    "translations": [ "to surf" ]
  },
  {
    "normalForm": "sgipio",
    "id": 4085,
    "translations": [ "to skip" ]
  },
  {
    "normalForm": "seilio",
    "id": 4108,
    "translations": [ "to base" ]
  },
  {
    "normalForm": "sticio",
    "id": 4133,
    "translations": [ "to stick" ]
  },
  {
    "normalForm": "symbylu",
    "id": 4134,
    "translations": [ "to motivate" ]
  },
  {
    "normalForm": "synhwyro",
    "id": 4154,
    "translations": [ "to sense" ]
  },
  {
    "normalForm": "samona",
    "id": 4189,
    "translations": [ "to catch salmon" ]
  },
  {
    "normalForm": "staeno",
    "id": 4202,
    "translations": [ "to stain" ]
  },
  {
    "normalForm": "swbachu",
    "id": 4210,
    "translations": [ "to shrivel" ]
  },
  {
    "normalForm": "siawnsio",
    "id": 4238,
    "translations": [ "to chance" ]
  },
  {
    "normalForm": "samplo",
    "id": 4241,
    "translations": [ "to sample" ]
  },
  {
    "normalForm": "samplu",
    "id": 4243,
    "translations": [ "to sample" ]
  },
  {
    "normalForm": "siglo",
    "id": 4249,
    "translations": [ "to swing" ]
  },
  {
    "normalForm": "siantio",
    "id": 4250,
    "translations": [ "to chant" ]
  },
  {
    "normalForm": "secondio",
    "id": 4264,
    "translations": [ "to second" ]
  },
  {
    "normalForm": "sbeitio",
    "id": 4291,
    "translations": [ "to spite" ]
  },
  {
    "normalForm": "stretsio",
    "id": 4294,
    "translations": [ "to stretch" ]
  },
  {
    "normalForm": "sipio",
    "id": 4304,
    "translations": [ "to sip" ]
  },
  {
    "normalForm": "siaffo",
    "id": 4341,
    "translations": [ "to chaff" ]
  },
  {
    "normalForm": "stereo",
    "id": 4342,
    "translations": [ "to stereo" ]
  },
  {
    "normalForm": "sgrechain",
    "stem": "sgrechi",
    "id": 4347,
    "translations": [ "to scream" ]
  },
  {
    "normalForm": "sobreiddio",
    "id": 4350,
    "translations": [ "to sober up" ]
  },
  {
    "normalForm": "sgidadlan",
    "id": 4368,
    "translations": [ "to skedaddle" ]
  },
  {
    "normalForm": "sancteiddio",
    "id": 4374,
    "translations": [ "to sanctify" ]
  },
  {
    "normalForm": "syffro",
    "id": 4375,
    "translations": [ "to suffer" ]
  },
  {
    "normalForm": "selio",
    "id": 4379,
    "translations": [ "to seal" ]
  },
  {
    "normalForm": "sigo",
    "id": 4386,
    "translations": [ "to buckle" ]
  },
  {
    "normalForm": "sgleinio",
    "id": 4388,
    "translations": [ "to polish" ]
  },
  {
    "normalForm": "sgwario",
    "id": 4418,
    "translations": [ "to square" ]
  },
  {
    "normalForm": "sgriwio",
    "id": 4421,
    "translations": [ "to screw" ]
  },
  {
    "normalForm": "socian",
    "id": 4429,
    "translations": [ "to soak" ]
  },
  {
    "normalForm": "swatio",
    "id": 4442,
    "translations": [ "to swat" ]
  },
  {
    "normalForm": "sensro",
    "id": 4448,
    "translations": [ "to censor" ]
  },
  {
    "normalForm": "sgemio",
    "id": 4467,
    "translations": [ "to scheme" ]
  },
  {
    "normalForm": "sglefrholio",
    "id": 4469,
    "translations": [ "to rollerskate" ]
  },
  {
    "normalForm": "suo",
    "id": 4473,
    "translations": [ "to buzz" ]
  },
  {
    "normalForm": "sgeintio",
    "id": 4496,
    "translations": [ "to sprinkle" ]
  },
  {
    "normalForm": "stocanu",
    "id": 4498,
    "translations": [ "to stook" ]
  },
  {
    "normalForm": "sgrapio",
    "id": 4509,
    "translations": [ "to scrape" ]
  },
  {
    "normalForm": "siomi",
    "id": 4519,
    "translations": [ "to disappoint" ]
  },
  {
    "normalForm": "sgwennu",
    "id": 4530,
    "translations": [ "to write" ]
  },
  {
    "normalForm": "sincio",
    "id": 4532,
    "translations": [ "to sink" ]
  },
  {
    "normalForm": "swisio",
    "id": 4534,
    "translations": [ "to swish" ]
  },
  {
    "normalForm": "siarpio",
    "id": 4558,
    "translations": [ "to sharpen" ]
  },
  {
    "normalForm": "shredio",
    "id": 4560,
    "translations": [ "to shred" ]
  },
  {
    "normalForm": "stiwardio",
    "id": 4561,
    "translations": [ "to keep watch" ]
  },
  {
    "normalForm": "seimio",
    "id": 4588,
    "translations": [ "to grease" ]
  },
  {
    "normalForm": "sgriptio",
    "id": 4597,
    "translations": [ "to script" ]
  },
  {
    "normalForm": "sleisio",
    "id": 4605,
    "translations": [ "to slice" ]
  },
  {
    "normalForm": "setio",
    "id": 4609,
    "translations": [ "to set" ]
  },
  {
    "normalForm": "sgwrio",
    "id": 4633
  },
  {
    "normalForm": "stampo",
    "id": 4637,
    "translations": [ "to stamp" ]
  },
  {
    "normalForm": "stwmpo",
    "id": 4655,
    "translations": [ "to mash" ]
  },
  {
    "normalForm": "setlo",
    "id": 4656,
    "translations": [ "to settle" ]
  }
]
