[
  {
    "normalForm": "hanes",
    "plural": ["hanesion"]
  },
  {
    "normalForm": "hydwythder",
    "id": 30098,
    "translations": [ "elasticity" ],
    "isCountable": false,
    "gender": "m"
  },
  {
    "normalForm": "heliwm",
    "id": 30108,
    "translations": [ "helium" ],
    "isCountable": false,
    "gender": "m"
  },
  {
    "normalForm": "heliwr",
    "id": 30111,
    "translations": [ "hunter" ],
    "isCountable": false,
    "gender": "m"
  },
  {
    "normalForm": "harm",
    "id": 30125,
    "translations": [ "harm" ],
    "isCountable": false,
    "gender": "m"
  },
  {
    "normalForm": "hanfod",
    "id": 30157,
    "translations": [ "essence" ],
    "isCountable": false,
    "gender": "m"
  },
  {
    "normalForm": "hanesyn",
    "id": 30170,
    "translations": [ "story" ],
    "plural": [ "hanesynnau" ],
    "gender": "mf"
  },
  {
    "normalForm": "hast",
    "id": 30185,
    "translations": [ "haste" ],
    "isCountable": false,
    "gender": "mf"
  },
  {
    "normalForm": "haneswr",
    "id": 30217,
    "translations": [ "historian" ],
    "plural": [ "haneswyr" ],
    "gender": "m"
  },
  {
    "normalForm": "haul",
    "id": 30226,
    "translations": [ "sun" ],
    "plural": [ "heuliau" ],
    "gender": "m"
  },
  {
    "normalForm": "hylifydd",
    "id": 30233,
    "translations": [ "liquidizer" ],
    "plural": [ "hylifwyr" ],
    "gender": "m"
  },
  {
    "normalForm": "haws",
    "id": 30273,
    "translations": [ "hawse" ],
    "isCountable": false,
    "gender": "m"
  },
  {
    "normalForm": "hirnych",
    "id": 30283,
    "translations": [ "lingering" ],
    "isCountable": false,
    "gender": "m"
  },
  {
    "normalForm": "hafddydd",
    "id": 30289,
    "translations": [ "fame" ],
    "isCountable": false,
    "gender": "m"
  },
  {
    "normalForm": "hawl",
    "id": 30293,
    "translations": [ "right" ],
    "plural": [ "hawliau" ],
    "gender": "f"
  },
  {
    "normalForm": "hanfodaeth",
    "id": 30300,
    "translations": [ "essence" ],
    "isCountable": false,
    "gender": "f"
  },
  {
    "normalForm": "hwyliau",
    "id": 30306,
    "translations": [ "mood" ],
    "plural": [ "hwyliau" ],
    "gender": "f"
  },
  {
    "normalForm": "halltwr",
    "id": 30399,
    "translations": [ "salter" ],
    "isCountable": false,
    "gender": "m"
  },
  {
    "normalForm": "hoffedd",
    "id": 30460,
    "translations": [ "pride" ],
    "plural": [ "hoffeddau" ],
    "gender": "m"
  },
  {
    "normalForm": "hosbis",
    "id": 30463,
    "translations": [ "hospice" ],
    "plural": [ "hosbisau" ],
    "gender": "f"
  },
  {
    "normalForm": "hufen",
    "id": 30471,
    "translations": [ "cream" ],
    "isCountable": false,
    "gender": "m"
  },
  {
    "normalForm": "henuriad",
    "id": 30494,
    "translations": [ "elder" ],
    "plural": [ "henuriaid" ],
    "gender": "m"
  },
  {
    "normalForm": "hwylfwrdd",
    "id": 30495,
    "translations": [ "sailboard" ],
    "plural": [ "hwylfyrddau" ],
    "gender": "m"
  },
  {
    "normalForm": "hyrwyddai",
    "id": 30532,
    "translations": [ "promoter" ],
    "plural": [ "hyrwyddeion" ],
    "gender": "m"
  },
  {
    "normalForm": "haelfraint",
    "id": 30581,
    "translations": [ "copyleft" ],
    "isCountable": false,
    "gender": "mf"
  },
  {
    "normalForm": "huddygl",
    "id": 30629,
    "translations": [ "soot" ],
    "isCountable": false,
    "gender": "m"
  },
  {
    "normalForm": "halen",
    "id": 30662,
    "translations": [ "salt" ],
    "isCountable": false,
    "gender": "m"
  },
  {
    "normalForm": "herodraeth",
    "id": 30671,
    "translations": [ "negotiation" ],
    "isCountable": false,
    "gender": "mf"
  },
  {
    "normalForm": "halas",
    "id": 30700,
    "translations": [ "borax" ],
    "isCountable": false,
    "gender": "m"
  },
  {
    "normalForm": "hegemoni",
    "id": 30745,
    "translations": [ "hegemony" ],
    "isCountable": false,
    "gender": "f"
  },
  {
    "normalForm": "hotel",
    "id": 30779,
    "translations": [ "hotel" ],
    "plural": [ "hotels" ],
    "gender": "f"
  },
  {
    "normalForm": "helaethder",
    "id": 30797,
    "translations": [ "extend" ],
    "isCountable": false,
    "gender": "m"
  },
  {
    "normalForm": "hyfforddwr",
    "id": 30910,
    "translations": [ "trainer" ],
    "plural": [ "hyfforddwragedd", "hyfforddwyr" ],
    "gender": "m"
  },
  {
    "normalForm": "holltwr",
    "id": 30942,
    "translations": [ "cleaver" ],
    "isCountable": false,
    "gender": "m"
  },
  {
    "normalForm": "hwiangerdd",
    "id": 30998,
    "translations": [ "lullaby" ],
    "isCountable": false,
    "gender": "f"
  },
  {
    "normalForm": "hwsmonaeth",
    "id": 31010,
    "translations": [ "husbandry" ],
    "isCountable": false,
    "gender": "mf"
  },
  {
    "normalForm": "hawddgarwch",
    "id": 31016,
    "translations": [ "favour" ],
    "isCountable": false,
    "gender": "m"
  },
  {
    "normalForm": "helynt",
    "id": 31023,
    "translations": [ "predicament" ],
    "plural": [ "helyntion" ],
    "gender": "f"
  },
  {
    "normalForm": "hirsgwar",
    "id": 31043,
    "translations": [ "oblong" ],
    "plural": [ "hirsgwarau" ],
    "gender": "m"
  },
  {
    "normalForm": "helpiwr",
    "id": 31105,
    "translations": [ "helper" ],
    "plural": [ "helpwyr" ],
    "gender": "m"
  },
  {
    "normalForm": "hamster",
    "id": 31106,
    "translations": [ "hamster" ],
    "isCountable": false,
    "gender": "m"
  },
  {
    "normalForm": "hyfder",
    "id": 31110,
    "translations": [ "confidence" ],
    "isCountable": false,
    "gender": "m"
  },
  {
    "normalForm": "hunangynhaliaeth",
    "id": 31118,
    "translations": [ "self-sufficiency" ],
    "isCountable": false,
    "gender": "f"
  },
  {
    "normalForm": "hapchwarae",
    "id": 31214,
    "translations": [ "games of chance" ],
    "plural": [ "hapchwaraeon" ],
    "gender": "m"
  },
  {
    "normalForm": "heriwr",
    "id": 31240,
    "translations": [ "champion" ],
    "plural": [ "herwyr" ],
    "gender": "m"
  },
  {
    "normalForm": "hydrotherapi",
    "id": 31247,
    "translations": [ "hydrotherapy" ],
    "isCountable": false,
    "gender": "m"
  },
  {
    "normalForm": "hwrlibwrli",
    "id": 31272,
    "translations": [ "hurly-burly" ],
    "isCountable": false,
    "gender": "m"
  },
  {
    "normalForm": "hwylbren",
    "id": 31288,
    "translations": [ "flagstaff" ],
    "isCountable": false,
    "gender": "mf"
  },
  {
    "normalForm": "hambwrdd",
    "id": 31357,
    "translations": [ "tray" ],
    "plural": [ "hambyrddau" ],
    "gender": "m"
  },
  {
    "normalForm": "hermit",
    "id": 31418,
    "translations": [ "hermit" ],
    "plural": [ "hermitiaid" ],
    "gender": "m"
  },
  {
    "normalForm": "howld",
    "id": 31422,
    "isCountable": false,
    "gender": "mf"
  },
  {
    "normalForm": "handl",
    "id": 31437,
    "translations": [ "handle" ],
    "isCountable": false,
    "gender": "f"
  },
  {
    "normalForm": "hyfforddai",
    "id": 31458,
    "translations": [ "trainee" ],
    "plural": [ "hyfforddeion" ],
    "gender": "m"
  },
  {
    "normalForm": "haniaeth",
    "id": 31467,
    "translations": [ "abstraction" ],
    "isCountable": false,
    "gender": "mf"
  },
  {
    "normalForm": "hynafiaeth",
    "id": 31471,
    "translations": [ "antiquity" ],
    "isCountable": false,
    "gender": "mf"
  },
  {
    "normalForm": "hamdden",
    "id": 31482,
    "translations": [ "leisure" ],
    "plural": [ "hamddenau" ],
    "gender": "f"
  },
  {
    "normalForm": "hollti blew",
    "id": 31514,
    "translations": [ "splitting hair" ],
    "isCountable": false,
    "gender": "m"
  },
  {
    "normalForm": "hofel",
    "id": 31525,
    "translations": [ "hovel" ],
    "isCountable": false,
    "gender": "f"
  },
  {
    "normalForm": "henach",
    "id": 31542,
    "translations": [ "ancient lineage" ],
    "isCountable": false,
    "gender": "f"
  },
  {
    "normalForm": "hysbysydd",
    "id": 31555,
    "translations": [ "notifier" ],
    "plural": [ "hysbysyddion" ],
    "gender": "m"
  },
  {
    "normalForm": "hipopotamws",
    "id": 31601,
    "translations": [ "hippopotamus" ],
    "isCountable": false,
    "gender": "m"
  },
  {
    "normalForm": "hufenfa",
    "id": 31610,
    "translations": [ "creamery" ],
    "plural": [ "hufenfeydd" ],
    "gender": "f"
  },
  {
    "normalForm": "hual",
    "id": 31683,
    "translations": [ "fetter" ],
    "plural": [ "hualau" ],
    "gender": "mf"
  },
  {
    "normalForm": "huan",
    "id": 31684,
    "translations": [ "sunlight" ],
    "isCountable": false,
    "gender": "mf"
  },
  {
    "normalForm": "haelioni",
    "id": 31703,
    "translations": [ "generosity" ],
    "isCountable": false,
    "gender": "m"
  },
  {
    "normalForm": "hysbysrwydd",
    "id": 31752,
    "translations": [ "publicity" ],
    "isCountable": false,
    "gender": "m"
  },
  {
    "normalForm": "hansh",
    "id": 31754,
    "translations": [ "haunch" ],
    "plural": [ "hanshys" ],
    "gender": "mf"
  },
  {
    "normalForm": "hysbýs",
    "id": 31771,
    "translations": [ "advertising" ],
    "isCountable": false,
    "gender": "m"
  },
  {
    "normalForm": "hidlwr",
    "id": 31804,
    "plural": [ "hidlwyr" ],
    "gender": "m"
  },
  {
    "normalForm": "hylenydd",
    "id": 31807,
    "translations": [ "hygienist" ],
    "plural": [ "hylenyddion" ],
    "gender": "m"
  },
  {
    "normalForm": "hap-ddewis",
    "id": 31829,
    "translations": [ "random choice" ],
    "plural": [ "hap-ddewisiadau", "hapddewisiadau" ],
    "gender": "m"
  },
  {
    "normalForm": "hypergyswllt",
    "id": 31889,
    "translations": [ "hyperlink" ],
    "plural": [ "hypergysylltau" ],
    "gender": "m"
  },
  {
    "normalForm": "hidlon",
    "id": 31963,
    "translations": [ "remain" ],
    "plural": [ "hidlion" ],
    "gender": "m"
  },
  {
    "normalForm": "hedonistiaeth",
    "id": 32020,
    "translations": [ "hedonism" ],
    "isCountable": false,
    "gender": "f"
  },
  {
    "normalForm": "hecterw",
    "id": 32056,
    "translations": [ "hectare" ],
    "plural": [ "hecterwau" ],
    "gender": "f"
  },
  {
    "normalForm": "hysbysebwr",
    "id": 32065,
    "translations": [ "advertiser" ],
    "plural": [ "hysbysebwyr" ],
    "gender": "m"
  },
  {
    "normalForm": "hyrwyddwr",
    "id": 32120,
    "translations": [ "promoter" ],
    "plural": [ "hyrwyddwyr" ],
    "gender": "m"
  },
  {
    "normalForm": "holltais",
    "id": 32132,
    "translations": [ "cleft" ],
    "plural": [ "hollteisiau" ],
    "gender": "f"
  },
  {
    "normalForm": "hoedl",
    "id": 32189,
    "translations": [ "life" ],
    "isCountable": false,
    "gender": "f"
  },
  {
    "normalForm": "hidlen",
    "id": 32225,
    "plural": [ "hidlenni" ],
    "gender": "f"
  },
  {
    "normalForm": "hu",
    "id": 32248,
    "translations": [ "cap" ],
    "isCountable": false,
    "gender": "m"
  },
  {
    "normalForm": "haerllugrwydd",
    "id": 32249,
    "translations": [ "impudence" ],
    "isCountable": false,
    "gender": "m"
  },
  {
    "normalForm": "hapfasnachwr",
    "id": 32344,
    "translations": [ "speculator" ],
    "plural": [ "hapfasnachwyr" ],
    "gender": "m"
  },
  {
    "normalForm": "honglad",
    "id": 32371,
    "translations": [ "spacious place" ],
    "isCountable": false,
    "gender": "mf"
  },
  {
    "normalForm": "hedd",
    "id": 32434,
    "translations": [ "peace" ],
    "plural": [ "heddau" ],
    "gender": "mf"
  },
  {
    "normalForm": "hecsagram",
    "id": 32466,
    "translations": [ "hexagram" ],
    "plural": [ "hecsagramau" ],
    "gender": "m"
  },
  {
    "normalForm": "harbwr",
    "id": 32504,
    "translations": [ "harbour" ],
    "plural": [ "harbwrs" ],
    "gender": "m"
  },
  {
    "normalForm": "hamog",
    "id": 32513,
    "translations": [ "hammock" ],
    "isCountable": false,
    "gender": "m"
  },
  {
    "normalForm": "hollfyd",
    "id": 32561,
    "translations": [ "manking" ],
    "isCountable": false,
    "gender": "m"
  },
  {
    "normalForm": "hyfrydwch",
    "id": 32563,
    "translations": [ "delight" ],
    "isCountable": false,
    "gender": "m"
  },
  {
    "normalForm": "heli",
    "id": 32588,
    "translations": [ "sea" ],
    "plural": [ "helïon" ],
    "gender": "m"
  },
  {
    "normalForm": "hangar",
    "id": 32603,
    "translations": [ "hangar" ],
    "isCountable": false,
    "gender": "f"
  },
  {
    "normalForm": "hashnod",
    "id": 32638,
    "translations": [ "hashtag" ],
    "plural": [ "hashnods", "hashnodau", "hashnodion" ],
    "gender": "m"
  },
  {
    "normalForm": "help",
    "id": 32646,
    "plural": [ "helpiau" ],
    "gender": "mf"
  },
  {
    "normalForm": "hostel",
    "id": 32658,
    "translations": [ "hostel" ],
    "plural": [ "hosteli" ],
    "gender": "m"
  },
  {
    "normalForm": "hanger",
    "id": 32670,
    "translations": [ "hanger" ],
    "isCountable": false,
    "gender": "f"
  },
  {
    "normalForm": "heol",
    "id": 32676,
    "translations": [ "road" ],
    "plural": [ "heolydd" ],
    "gender": "f"
  },
  {
    "normalForm": "heth",
    "id": 32721,
    "translations": [ "wilderness" ],
    "isCountable": false,
    "gender": "m"
  },
  {
    "normalForm": "hangmon",
    "id": 32735,
    "translations": [ "hangman" ],
    "isCountable": false,
    "gender": "m"
  },
  {
    "normalForm": "hesg",
    "id": 32741,
    "translations": [ "flag" ],
    "plural": [ "hesg" ],
    "gender": "m"
  },
  {
    "normalForm": "hedoniaeth",
    "id": 32765,
    "translations": [ "hedonism" ],
    "isCountable": false,
    "gender": "f"
  },
  {
    "normalForm": "hyrddiad",
    "id": 32785,
    "translations": [ "pounding" ],
    "plural": [ "hyrddiadau" ],
    "gender": "m"
  },
  {
    "normalForm": "hamper",
    "id": 32884,
    "translations": [ "hamper" ],
    "isCountable": false,
    "gender": "f"
  },
  {
    "normalForm": "hebryngiad",
    "id": 32902,
    "isCountable": false,
    "gender": "m"
  },
  {
    "normalForm": "heffrod",
    "id": 32966,
    "translations": [ "heifer" ],
    "plural": [ "heffrod" ],
    "gender": "f"
  },
  {
    "normalForm": "hwch",
    "id": 32967,
    "translations": [ "sow" ],
    "plural": [ "hychod" ],
    "gender": "mf"
  },
  {
    "normalForm": "hunanladdiad",
    "id": 32976,
    "translations": [ "suicide" ],
    "isCountable": false,
    "gender": "m"
  },
  {
    "normalForm": "heldrin",
    "id": 33011,
    "translations": [ "trouble" ],
    "isCountable": false,
    "gender": "mf"
  },
  {
    "normalForm": "hydrinedd",
    "id": 33024,
    "translations": [ "manageability" ],
    "isCountable": false,
    "gender": "m"
  },
  {
    "normalForm": "hofrennydd",
    "id": 33033,
    "translations": [ "helicopter" ],
    "isCountable": false,
    "gender": "m"
  },
  {
    "normalForm": "hwyrnos",
    "id": 33078,
    "translations": [ "night" ],
    "isCountable": false,
    "gender": "f"
  },
  {
    "normalForm": "harpsicord",
    "id": 33118,
    "translations": [ "harpsichord" ],
    "plural": [ "harpsicordiau" ],
    "gender": "mf"
  },
  {
    "normalForm": "hynafgwr",
    "id": 33127,
    "translations": [ "elder" ],
    "isCountable": false,
    "gender": "m"
  },
  {
    "normalForm": "hac",
    "id": 33145,
    "plural": [ "haciau" ],
    "gender": "m"
  },
  {
    "normalForm": "haf",
    "id": 33146,
    "translations": [ "summer" ],
    "plural": [ "hafau" ],
    "gender": "m"
  },
  {
    "normalForm": "hag",
    "id": 33147,
    "plural": [ "hagiau" ],
    "gender": "m"
  },
  {
    "normalForm": "han",
    "id": 33149,
    "translations": [ "essence" ],
    "isCountable": false,
    "gender": "f"
  },
  {
    "normalForm": "ham",
    "id": 33150,
    "translations": [ "ham" ],
    "plural": [ "hamiau" ],
    "gender": "mf"
  },
  {
    "normalForm": "hap",
    "id": 33151,
    "translations": [ "chance" ],
    "plural": [ "hapau" ],
    "gender": "f"
  },
  {
    "normalForm": "heddychwr",
    "id": 33179,
    "translations": [ "peacemaker" ],
    "plural": [ "heddychwragedd" ],
    "gender": "m"
  },
  {
    "normalForm": "hec",
    "id": 33205,
    "translations": [ "lameness" ],
    "isCountable": false,
    "gender": "m"
  },
  {
    "normalForm": "hen",
    "id": 33211,
    "translations": [ "old age" ],
    "isCountable": false,
    "gender": "m"
  },
  {
    "normalForm": "hem",
    "id": 33212,
    "translations": [ "rivet" ],
    "isCountable": false,
    "gender": "f"
  },
  {
    "normalForm": "her",
    "id": 33214,
    "translations": [ "challenge" ],
    "plural": [ "heriau" ],
    "gender": "f"
  },
  {
    "normalForm": "het",
    "id": 33216,
    "translations": [ "hat" ],
    "plural": [ "hetiau" ],
    "gender": "f"
  },
  {
    "normalForm": "hiroes",
    "id": 33256,
    "translations": [ "longevity" ],
    "isCountable": false,
    "gender": "f"
  },
  {
    "normalForm": "hecsdeilsen",
    "id": 33264,
    "translations": [ "hextile" ],
    "plural": [ "hecsdeils" ],
    "gender": "f"
  },
  {
    "normalForm": "hacsen",
    "id": 33269,
    "translations": [ "whore" ],
    "plural": [ "hacs" ],
    "gender": "f"
  },
  {
    "normalForm": "hid",
    "id": 33285,
    "translations": [ "dependence" ],
    "isCountable": false,
    "gender": "m"
  },
  {
    "normalForm": "hil",
    "id": 33291,
    "translations": [ "seed" ],
    "plural": [ "hilion" ],
    "gender": "mf"
  },
  {
    "normalForm": "hin",
    "id": 33293,
    "translations": [ "side" ],
    "plural": [ "hinoedd" ],
    "gender": "f"
  },
  {
    "normalForm": "hip",
    "id": 33297,
    "translations": [ "tap" ],
    "isCountable": false,
    "gender": "m"
  },
  {
    "normalForm": "hiwmws",
    "id": 33338,
    "translations": [ "humus" ],
    "isCountable": false,
    "gender": "m"
  },
  {
    "normalForm": "hudoliaeth",
    "id": 33343,
    "translations": [ "magic" ],
    "plural": [ "hudoliaethau" ],
    "gender": "mf"
  },
  {
    "normalForm": "hob",
    "id": 33429,
    "translations": [ "swine" ],
    "plural": [ "hobau" ],
    "gender": "mf"
  },
  {
    "normalForm": "hof",
    "id": 33433,
    "translations": [ "hoe" ],
    "plural": [ "hofiau" ],
    "gender": "f"
  },
  {
    "normalForm": "hoe",
    "id": 33434,
    "translations": [ "pause" ],
    "plural": [ "hoeau" ],
    "gender": "f"
  },
  {
    "normalForm": "hop",
    "id": 33439,
    "translations": [ "hop" ],
    "plural": [ "hopiau" ],
    "gender": "m"
  },
  {
    "normalForm": "heuldro",
    "id": 33440,
    "translations": [ "heliotrope" ],
    "plural": [ "heuldroeon" ],
    "gender": "m"
  },
  {
    "normalForm": "hot",
    "id": 33442,
    "translations": [ "hood" ],
    "plural": [ "hotanau" ],
    "gender": "f"
  },
  {
    "normalForm": "hos",
    "id": 33445,
    "translations": [ "hose" ],
    "isCountable": false,
    "gender": "f"
  },
  {
    "normalForm": "hwyl",
    "id": 33452,
    "translations": [ "fun" ],
    "isCountable": false,
    "gender": "f"
  },
  {
    "normalForm": "hwyn",
    "id": 33456,
    "translations": [ "top" ],
    "plural": [ "hwyni" ],
    "gender": "m"
  },
  {
    "normalForm": "hotél",
    "id": 33460,
    "translations": [ "hotel" ],
    "isCountable": false,
    "gender": "f"
  },
  {
    "normalForm": "hyder",
    "id": 33490,
    "translations": [ "confidence" ],
    "plural": [ "hyderoedd" ],
    "gender": "m"
  },
  {
    "normalForm": "hiwmor",
    "id": 33520,
    "translations": [ "vitreous" ],
    "plural": [ "hiwmorau" ],
    "gender": "m"
  },
  {
    "normalForm": "hud",
    "id": 33540,
    "translations": [ "magic" ],
    "plural": [ "hudau" ],
    "gender": "mf"
  },
  {
    "normalForm": "heintiad",
    "id": 33544,
    "translations": [ "infection" ],
    "isCountable": false,
    "gender": "m"
  },
  {
    "normalForm": "hiliaeth",
    "id": 33547,
    "translations": [ "racism" ],
    "isCountable": false,
    "gender": "f"
  },
  {
    "normalForm": "hun",
    "id": 33549,
    "plural": [ "hunau" ],
    "gender": "f"
  },
  {
    "normalForm": "hogen",
    "id": 33551,
    "translations": [ "girl" ],
    "plural": [ "hogennod" ],
    "gender": "f"
  },
  {
    "normalForm": "huw",
    "id": 33560,
    "isCountable": false,
    "gender": "m"
  },
  {
    "normalForm": "hwp",
    "id": 33590,
    "translations": [ "push" ],
    "isCountable": false,
    "gender": "mf"
  },
  {
    "normalForm": "hierarchaeth",
    "id": 33599,
    "translations": [ "hierarchy" ],
    "plural": [ "hierarchaethau" ],
    "gender": "f"
  },
  {
    "normalForm": "harddwch",
    "id": 33605,
    "translations": [ "beauty" ],
    "isCountable": false,
    "gender": "m"
  },
  {
    "normalForm": "hyd",
    "id": 33631,
    "translations": [ "length" ],
    "plural": [ "hydau", "hydoedd" ],
    "gender": "m"
  },
  {
    "normalForm": "heresi",
    "id": 33633,
    "translations": [ "heresy" ],
    "isCountable": false,
    "gender": "f"
  },
  {
    "normalForm": "hym",
    "id": 33635,
    "translations": [ "hint" ],
    "isCountable": false,
    "gender": "m"
  },
  {
    "normalForm": "hawlen",
    "id": 33664,
    "translations": [ "permit" ],
    "isCountable": false,
    "gender": "f"
  },
  {
    "normalForm": "hwntw",
    "id": 33701,
    "translations": [ "Southerner" ],
    "plural": [ "hwntwyr", "hwyntwyr" ],
    "gender": "m"
  },
  {
    "normalForm": "helaethiad",
    "id": 33741,
    "translations": [ "enlargement" ],
    "plural": [ "helaethiadau" ],
    "gender": "m"
  },
  {
    "normalForm": "hygoeledd",
    "id": 33801,
    "translations": [ "belief" ],
    "plural": [ "hygoeleddau" ],
    "gender": "m"
  },
  {
    "normalForm": "hogyn",
    "id": 33827,
    "translations": [ "boy" ],
    "plural": [ "hogiau", "hogiau" ],
    "gender": "m"
  },
  {
    "normalForm": "hirnos",
    "id": 33843,
    "translations": [ "long night" ],
    "plural": [ "hirnosau" ],
    "gender": "f"
  },
  {
    "normalForm": "hirnod",
    "id": 33864,
    "translations": [ "circumflex accent" ],
    "plural": [ "hirnodau" ],
    "gender": "m"
  },
  {
    "normalForm": "hurtrwydd",
    "id": 33884,
    "translations": [ "nonsense" ],
    "isCountable": false,
    "gender": "m"
  },
  {
    "normalForm": "hysbysiad",
    "id": 33892,
    "translations": [ "announcement" ],
    "plural": [ "hysbysiadau", "hysbysiadau" ],
    "gender": "m"
  },
  {
    "normalForm": "holide",
    "id": 33944,
    "translations": [ "holiday" ],
    "isCountable": false,
    "gender": "f"
  },
  {
    "normalForm": "halogiad",
    "id": 33956,
    "translations": [ "pollution" ],
    "isCountable": false,
    "gender": "m"
  },
  {
    "normalForm": "hunandosturi",
    "id": 33984,
    "translations": [ "self-pity" ],
    "isCountable": false,
    "gender": "m"
  },
  {
    "normalForm": "heniaith",
    "id": 34017,
    "translations": [ "ancient language" ],
    "isCountable": false,
    "gender": "f"
  },
  {
    "normalForm": "hosbital",
    "id": 34039,
    "translations": [ "hospital" ],
    "plural": [ "hosbitals" ],
    "gender": "f"
  },
  {
    "normalForm": "heddwas",
    "id": 34048,
    "translations": [ "policeman" ],
    "plural": [ "heddweision" ],
    "gender": "m"
  },
  {
    "normalForm": "heddwch",
    "id": 34061,
    "translations": [ "peace" ],
    "plural": [ "heddychau" ],
    "gender": "m"
  },
  {
    "normalForm": "hylendid",
    "id": 34130,
    "translations": [ "hygiene" ],
    "isCountable": false,
    "gender": "m"
  },
  {
    "normalForm": "hompen",
    "id": 34147,
    "translations": [ "big thing" ],
    "isCountable": false,
    "gender": "f"
  },
  {
    "normalForm": "heffer",
    "id": 34155,
    "translations": [ "heifer" ],
    "isCountable": false,
    "gender": "f"
  },
  {
    "normalForm": "harem",
    "id": 34164,
    "translations": [ "harem" ],
    "isCountable": false,
    "gender": "f"
  },
  {
    "normalForm": "hwrdd",
    "id": 34167,
    "translations": [ "impulse" ],
    "plural": [ "hyrddiau" ],
    "gender": "m"
  },
  {
    "normalForm": "hynafiad",
    "id": 34205,
    "translations": [ "antiquatedness" ],
    "isCountable": false,
    "gender": "m"
  },
  {
    "normalForm": "handlo",
    "id": 34219,
    "translations": [ "handler" ],
    "isCountable": false,
    "gender": "m"
  },
  {
    "normalForm": "hybrid",
    "id": 34290,
    "translations": [ "hybrid" ],
    "isCountable": false,
    "gender": "m"
  },
  {
    "normalForm": "hunanfoddhad",
    "id": 34326,
    "translations": [ "self-satisfaction" ],
    "isCountable": false,
    "gender": "m"
  },
  {
    "normalForm": "hecsagon",
    "id": 34328,
    "translations": [ "hexagon" ],
    "plural": [ "hecsagonau" ],
    "gender": "m"
  },
  {
    "normalForm": "hypothesis",
    "id": 34337,
    "translations": [ "hypothesis" ],
    "isCountable": false,
    "gender": "f"
  },
  {
    "normalForm": "hufennau",
    "id": 34340,
    "translations": [ "cream" ],
    "isCountable": false,
    "gender": "m"
  },
  {
    "normalForm": "hafalnod",
    "id": 34341,
    "translations": [ "equals sign" ],
    "plural": [ "hafalnodau" ],
    "gender": "m"
  },
  {
    "normalForm": "heulwen",
    "id": 34343,
    "translations": [ "sunshine" ],
    "isCountable": false,
    "gender": "f"
  },
  {
    "normalForm": "hylifedd",
    "id": 34369,
    "translations": [ "liquidity" ],
    "plural": [ "hylifeddau" ],
    "gender": "m"
  },
  {
    "normalForm": "hynt",
    "id": 34421,
    "translations": [ "course" ],
    "plural": [ "hyntiau", "hyntoedd" ],
    "gender": "f"
  },
  {
    "normalForm": "helwriaeth",
    "id": 34438,
    "isCountable": false,
    "gender": "f"
  },
  {
    "normalForm": "hurbwrcas",
    "id": 34485,
    "translations": [ "hire-purchase" ],
    "plural": [ "hurbwrcasau" ],
    "gender": "m"
  },
  {
    "normalForm": "hanfodion",
    "id": 34500,
    "translations": [ "essential" ],
    "isCountable": false,
    "gender": "m"
  },
  {
    "normalForm": "herwydd",
    "id": 34505,
    "isCountable": false,
    "gender": "m"
  },
  {
    "normalForm": "hoffusrwydd",
    "id": 34514,
    "translations": [ "favour" ],
    "isCountable": false,
    "gender": "m"
  },
  {
    "normalForm": "hofrenydd",
    "id": 34518,
    "translations": [ "helicopter" ],
    "plural": [ "hofrenyddion" ],
    "gender": "m"
  },
  {
    "normalForm": "hysbyslen",
    "id": 34528,
    "translations": [ "prospectuse" ],
    "plural": [ "hysbyslenni" ],
    "gender": "f"
  },
  {
    "normalForm": "hirddydd",
    "id": 34539,
    "translations": [ "long day" ],
    "isCountable": false,
    "gender": "m"
  },
  {
    "normalForm": "hunlun",
    "id": 34551,
    "translations": [ "selfie" ],
    "plural": [ "hunluniau" ],
    "gender": "m"
  },
  {
    "normalForm": "hunangasineb",
    "id": 34584,
    "translations": [ "self-hatred" ],
    "isCountable": false,
    "gender": "m"
  },
  {
    "normalForm": "hwrli",
    "id": 34622,
    "translations": [ "whore" ],
    "isCountable": false,
    "gender": "f"
  },
  {
    "normalForm": "hwylustod",
    "id": 34625,
    "translations": [ "ease" ],
    "isCountable": false,
    "gender": "m"
  },
  {
    "normalForm": "haleliwia",
    "id": 34630,
    "translations": [ "alleluia" ],
    "plural": [ "haleliwiau" ],
    "gender": "f"
  },
  {
    "normalForm": "hunanddisgyblaeth",
    "id": 34678,
    "translations": [ "self-discipline" ],
    "isCountable": false,
    "gender": "f"
  },
  {
    "normalForm": "herwriaeth",
    "id": 34680,
    "translations": [ "transportation" ],
    "isCountable": false,
    "gender": "f"
  },
  {
    "normalForm": "haearnach",
    "id": 34694,
    "translations": [ "scrap iron" ],
    "isCountable": false,
    "gender": "m"
  },
  {
    "normalForm": "haflug",
    "id": 34741,
    "translations": [ "plenty" ],
    "isCountable": false,
    "gender": "mf"
  },
  {
    "normalForm": "heclwr",
    "id": 34744,
    "translations": [ "heckler" ],
    "plural": [ "heclwyr" ],
    "gender": "m"
  },
  {
    "normalForm": "hwyrfrydigrwydd",
    "id": 34751,
    "isCountable": false,
    "gender": "m"
  },
  {
    "normalForm": "historia",
    "id": 34772,
    "translations": [ "history" ],
    "plural": [ "historiâu" ],
    "gender": "f"
  },
  {
    "normalForm": "hergwd",
    "id": 34793,
    "translations": [ "push" ],
    "isCountable": false,
    "gender": "mf"
  },
  {
    "normalForm": "heddferch",
    "id": 34814,
    "translations": [ "policewoman" ],
    "isCountable": false,
    "gender": "f"
  },
  {
    "normalForm": "hormon",
    "id": 34819,
    "translations": [ "hormone" ],
    "plural": [ "hormonau" ],
    "gender": "m"
  },
  {
    "normalForm": "herfeiddiad",
    "id": 34854,
    "translations": [ "challenge" ],
    "isCountable": false,
    "gender": "m"
  },
  {
    "normalForm": "heddychiaeth",
    "id": 34855,
    "translations": [ "pacifism" ],
    "isCountable": false,
    "gender": "f"
  },
  {
    "normalForm": "hidl",
    "id": 34881,
    "plural": [ "hidlau" ],
    "gender": "mf"
  },
  {
    "normalForm": "hectometr",
    "id": 34882,
    "translations": [ "hectometre" ],
    "plural": [ "hectometrau" ],
    "gender": "m"
  },
  {
    "normalForm": "haeddiant",
    "id": 34907,
    "translations": [ "desert" ],
    "plural": [ "haeddiannau" ],
    "gender": "m"
  },
  {
    "normalForm": "hanfodiad",
    "id": 34951,
    "translations": [ "essence" ],
    "isCountable": false,
    "gender": "m"
  },
  {
    "normalForm": "helfa",
    "id": 34954,
    "plural": [ "helfâu" ],
    "gender": "f"
  },
  {
    "normalForm": "hindda",
    "id": 35003,
    "translations": [ "fine weather" ],
    "isCountable": false,
    "gender": "mf"
  },
  {
    "normalForm": "hipi",
    "id": 35037,
    "translations": [ "hippy" ],
    "plural": [ "hipis" ],
    "gender": "mf"
  },
  {
    "normalForm": "hances",
    "id": 35050,
    "translations": [ "handkerchief" ],
    "isCountable": false,
    "gender": "mf"
  },
  {
    "normalForm": "hint",
    "id": 35068,
    "translations": [ "hint" ],
    "plural": [ "hints" ],
    "gender": "f"
  },
  {
    "normalForm": "hawddfyd",
    "id": 35092,
    "translations": [ "ease" ],
    "isCountable": false,
    "gender": "m"
  },
  {
    "normalForm": "hipo",
    "id": 35097,
    "translations": [ "hippo" ],
    "isCountable": false,
    "gender": "m"
  },
  {
    "normalForm": "hwyaid",
    "id": 35187,
    "translations": [ "duck" ],
    "plural": [ "chwid" ],
    "gender": "f"
  },
  {
    "normalForm": "helyg",
    "id": 35212,
    "translations": [ "willow" ],
    "plural": [ "helyg" ],
    "gender": "m"
  },
  {
    "normalForm": "hoist",
    "id": 35226,
    "translations": [ "hoist" ],
    "isCountable": false,
    "gender": "mf"
  },
  {
    "normalForm": "holwr",
    "id": 35259,
    "translations": [ "questioner" ],
    "plural": [ "holwyr" ],
    "gender": "m"
  },
  {
    "normalForm": "hanesyddiaeth",
    "id": 35266,
    "translations": [ "history" ],
    "isCountable": false,
    "gender": "f"
  },
  {
    "normalForm": "hendref",
    "id": 35302,
    "translations": [ "hometown" ],
    "isCountable": false,
    "gender": "f"
  },
  {
    "normalForm": "homoffon",
    "id": 35335,
    "translations": [ "homophone" ],
    "plural": [ "homoffonau" ],
    "gender": "f"
  },
  {
    "normalForm": "hectogram",
    "id": 35436,
    "translations": [ "hectogram" ],
    "plural": [ "hectogramau" ],
    "gender": "m"
  },
  {
    "normalForm": "hwter",
    "id": 35449,
    "translations": [ "hooter" ],
    "plural": [ "hwteri" ],
    "gender": "mf"
  },
  {
    "normalForm": "hebryngwr",
    "id": 35452,
    "translations": [ "leader" ],
    "isCountable": false,
    "gender": "m"
  },
  {
    "normalForm": "hollt",
    "id": 35463,
    "translations": [ "fork" ],
    "plural": [ "holltau", "holltennau" ],
    "gender": "mf"
  },
  {
    "normalForm": "hafaliad",
    "id": 35500,
    "translations": [ "equation" ],
    "plural": [ "hafaliadau" ],
    "gender": "m"
  },
  {
    "normalForm": "hanesydd",
    "id": 35538,
    "translations": [ "historian" ],
    "plural": [ "hanesyddion" ],
    "gender": "m"
  },
  {
    "normalForm": "hunanhyder",
    "id": 35544,
    "translations": [ "self-confidence" ],
    "isCountable": false,
    "gender": "m"
  },
  {
    "normalForm": "henaint",
    "id": 35607,
    "translations": [ "old age" ],
    "isCountable": false,
    "gender": "m"
  },
  {
    "normalForm": "homer",
    "id": 35664,
    "translations": [ "big thing" ],
    "isCountable": false,
    "gender": "m"
  },
  {
    "normalForm": "hydrocarbon",
    "id": 35670,
    "translations": [ "hydrocarbon" ],
    "plural": [ "hydrocarbonau" ],
    "gender": "m"
  },
  {
    "normalForm": "hapddalwr",
    "id": 35772,
    "translations": [ "stakeholder" ],
    "plural": [ "hapddalwyr" ],
    "gender": "m"
  },
  {
    "normalForm": "henfro",
    "id": 35792,
    "translations": [ "childhood home" ],
    "isCountable": false,
    "gender": "f"
  },
  {
    "normalForm": "hwsmon",
    "id": 35818,
    "translations": [ "husbandman" ],
    "isCountable": false,
    "gender": "m"
  },
  {
    "normalForm": "hatsh",
    "id": 35880,
    "isCountable": false,
    "gender": "f"
  },
  {
    "normalForm": "hyfforddiant",
    "id": 35881,
    "translations": [ "training" ],
    "isCountable": false,
    "gender": "m"
  },
  {
    "normalForm": "hydoddiant",
    "id": 35899,
    "translations": [ "solution" ],
    "isCountable": false,
    "gender": "m"
  },
  {
    "normalForm": "henwr",
    "id": 35948,
    "translations": [ "old man" ],
    "isCountable": false,
    "gender": "m"
  },
  {
    "normalForm": "habit",
    "id": 35992,
    "translations": [ "habit" ],
    "isCountable": false,
    "gender": "f"
  },
  {
    "normalForm": "harmoniwm",
    "id": 36020,
    "translations": [ "harmonium" ],
    "isCountable": false,
    "gender": "mf"
  },
  {
    "normalForm": "human",
    "id": 36046,
    "translations": [ "tennis" ],
    "plural": [ "humanau" ],
    "gender": "f"
  },
  {
    "normalForm": "hawlrwym",
    "id": 36111,
    "translations": [ "lien" ],
    "plural": [ "hawlrwymau" ],
    "gender": "m"
  },
  {
    "normalForm": "hanner cylch",
    "id": 36155,
    "translations": [ "semi-circle" ],
    "plural": [ "hanner cylchoedd" ],
    "gender": "m"
  },
  {
    "normalForm": "hanner",
    "id": 36204,
    "translations": [ "half" ],
    "plural": [ "haneri", "hanerau" ],
    "gender": "m"
  },
  {
    "normalForm": "hunanadnabyddiaeth",
    "id": 36241,
    "translations": [ "self-identification" ],
    "isCountable": false,
    "gender": "mf"
  },
  {
    "normalForm": "hunanreolaeth",
    "id": 36268,
    "translations": [ "self-control" ],
    "isCountable": false,
    "gender": "f"
  },
  {
    "normalForm": "holwyddoreg",
    "id": 36325,
    "translations": [ "catechism" ],
    "plural": [ "holwyddoregau" ],
    "gender": "mf"
  },
  {
    "normalForm": "hinsawdd",
    "id": 36326,
    "translations": [ "climate" ],
    "plural": [ "hinsoddau" ],
    "gender": "f"
  },
  {
    "normalForm": "horwth",
    "id": 36357,
    "translations": [ "large unwieldy lump" ],
    "isCountable": false,
    "gender": "mf"
  },
  {
    "normalForm": "homoffobia",
    "id": 36386,
    "translations": [ "homophobia" ],
    "isCountable": false,
    "gender": "m"
  },
  {
    "normalForm": "hepatitis",
    "id": 36448,
    "translations": [ "hepatitis" ],
    "isCountable": false,
    "gender": "m"
  },
  {
    "normalForm": "hepgoriad",
    "id": 36573,
    "translations": [ "exception" ],
    "plural": [ "hepgoriadau" ],
    "gender": "m"
  },
  {
    "normalForm": "hawliad",
    "id": 36582,
    "translations": [ "claim" ],
    "plural": [ "hawliadau" ],
    "gender": "m"
  },
  {
    "normalForm": "hunangofiant",
    "id": 36744,
    "translations": [ "autobiography" ],
    "plural": [ "hunangofiannau" ],
    "gender": "m"
  },
  {
    "normalForm": "huodledd",
    "id": 36765,
    "translations": [ "eloquence" ],
    "isCountable": false,
    "gender": "m"
  },
  {
    "normalForm": "hierarchiaeth",
    "id": 36766,
    "translations": [ "hierarchy" ],
    "isCountable": false,
    "gender": "f"
  },
  {
    "normalForm": "hesgyn",
    "id": 36817,
    "translations": [ "vessel" ],
    "isCountable": false,
    "gender": "m"
  },
  {
    "normalForm": "hurtni",
    "id": 36856,
    "translations": [ "stupidity" ],
    "isCountable": false,
    "gender": "m"
  },
  {
    "normalForm": "hylif",
    "id": 36861,
    "translations": [ "liquid" ],
    "plural": [ "hylifau" ],
    "gender": "m"
  },
  {
    "normalForm": "helbul",
    "id": 36869,
    "translations": [ "trouble" ],
    "plural": [ "helbulon" ],
    "gender": "m"
  },
  {
    "normalForm": "herod",
    "id": 36875,
    "translations": [ "ambassador" ],
    "isCountable": false,
    "gender": "m"
  },
  {
    "normalForm": "helicopter",
    "id": 36881,
    "translations": [ "helicopter" ],
    "plural": [ "helicoptrau" ],
    "gender": "m"
  },
  {
    "normalForm": "heolan",
    "id": 36901,
    "translations": [ "lane" ],
    "isCountable": false,
    "gender": "f"
  },
  {
    "normalForm": "hafan",
    "id": 36929,
    "translations": [ "home page" ],
    "plural": [ "hafanau" ],
    "gender": "f"
  },
  {
    "normalForm": "hwylus",
    "id": 36961,
    "translations": [ "facilitator" ],
    "isCountable": false,
    "gender": "m"
  },
  {
    "normalForm": "helebor",
    "id": 36967,
    "translations": [ "hellebore" ],
    "isCountable": false,
    "gender": "m"
  },
  {
    "normalForm": "helaethrwydd",
    "id": 36980,
    "translations": [ "abundance" ],
    "isCountable": false,
    "gender": "m"
  },
  {
    "normalForm": "hunanleiddiad",
    "id": 37030,
    "translations": [ "suicide" ],
    "plural": [ "hunanleiddiaid" ],
    "gender": "m"
  },
  {
    "normalForm": "hurtyn",
    "id": 37071,
    "translations": [ "fool" ],
    "plural": [ "hurtynnod" ],
    "gender": "m"
  },
  {
    "normalForm": "heulsaf",
    "id": 37076,
    "translations": [ "solstice" ],
    "isCountable": false,
    "gender": "m"
  },
  {
    "normalForm": "hynafedd",
    "id": 37081,
    "translations": [ "seniority" ],
    "isCountable": false,
    "gender": "m"
  },
  {
    "normalForm": "handicap",
    "id": 37092,
    "translations": [ "handicap" ],
    "plural": [ "handicapau" ],
    "gender": "m"
  },
  {
    "normalForm": "hysteria",
    "id": 37095,
    "translations": [ "hysteria" ],
    "isCountable": false,
    "gender": "m"
  },
  {
    "normalForm": "hurfilwr",
    "id": 37103,
    "translations": [ "mercenary" ],
    "plural": [ "hurfilwyr" ],
    "gender": "m"
  },
  {
    "normalForm": "hurthgen",
    "id": 37105,
    "translations": [ "blockhead" ],
    "plural": [ "hurthgennod" ],
    "gender": "mf"
  },
  {
    "normalForm": "hologram",
    "id": 37110,
    "translations": [ "hologram" ],
    "plural": [ "hologramau" ],
    "gender": "m"
  },
  {
    "normalForm": "hunanaberth",
    "id": 37117,
    "translations": [ "self-sacrifice" ],
    "isCountable": false,
    "gender": "mf"
  },
  {
    "normalForm": "hyfedrwydd",
    "id": 37128,
    "translations": [ "skill" ],
    "isCountable": false,
    "gender": "m"
  },
  {
    "normalForm": "hecsomino",
    "id": 37145,
    "translations": [ "hexomino" ],
    "plural": [ "hecsominos" ],
    "gender": "m"
  },
  {
    "normalForm": "hadog",
    "id": 37182,
    "translations": [ "haddock" ],
    "isCountable": false,
    "gender": "m"
  },
  {
    "normalForm": "hwyrddydd",
    "id": 37193,
    "translations": [ "evening" ],
    "isCountable": false,
    "gender": "m"
  },
  {
    "normalForm": "henwlad",
    "id": 37207,
    "translations": [ "the old country" ],
    "isCountable": false,
    "gender": "f"
  },
  {
    "normalForm": "hunaniaeth genedlaethol",
    "id": 37381,
    "translations": [ "national identity" ],
    "isCountable": false,
    "gender": "f"
  },
  {
    "normalForm": "hawliwr",
    "id": 37384,
    "translations": [ "claimant" ],
    "plural": [ "hawlwyr" ],
    "gender": "m"
  },
  {
    "normalForm": "huniad",
    "id": 37426,
    "isCountable": false,
    "gender": "f"
  },
  {
    "normalForm": "hunanlywodraeth",
    "id": 37427,
    "translations": [ "self-government" ],
    "isCountable": false,
    "gender": "f"
  },
  {
    "normalForm": "hiliogaeth",
    "id": 37428,
    "translations": [ "issue" ],
    "isCountable": false,
    "gender": "mf"
  },
  {
    "normalForm": "hunllef",
    "id": 37440,
    "translations": [ "nightmare" ],
    "plural": [ "hunllefau" ],
    "gender": "f"
  },
  {
    "normalForm": "hyfywedd",
    "id": 37520,
    "translations": [ "viability" ],
    "isCountable": false,
    "gender": "m"
  },
  {
    "normalForm": "hongl",
    "id": 37554,
    "translations": [ "interpretation" ],
    "isCountable": false,
    "gender": "m"
  },
  {
    "normalForm": "hawlfraint",
    "id": 37603,
    "translations": [ "copyright" ],
    "plural": [ "hawlfreintiau" ],
    "gender": "mf"
  },
  {
    "normalForm": "hadyn",
    "id": 37630,
    "translations": [ "seed" ],
    "isCountable": false,
    "gender": "m"
  },
  {
    "normalForm": "hynawsedd",
    "id": 37658,
    "translations": [ "kindness" ],
    "isCountable": false,
    "gender": "m"
  },
  {
    "normalForm": "holocawst",
    "id": 37778,
    "translations": [ "holocaust" ],
    "isCountable": false,
    "gender": "m"
  },
  {
    "normalForm": "hemisffer",
    "id": 37788,
    "translations": [ "hemisphere" ],
    "isCountable": false,
    "gender": "f"
  },
  {
    "normalForm": "hwliganiaeth",
    "id": 37791,
    "translations": [ "hooliganism" ],
    "isCountable": false,
    "gender": "f"
  },
  {
    "normalForm": "hirdaith",
    "id": 37812,
    "translations": [ "long journey" ],
    "isCountable": false,
    "gender": "f"
  },
  {
    "normalForm": "hiffiant",
    "id": 37818,
    "translations": [ "foam" ],
    "isCountable": false,
    "gender": "m"
  },
  {
    "normalForm": "hyrwyddiad",
    "id": 37825,
    "translations": [ "promotion" ],
    "plural": [ "hyrwyddiadau" ],
    "gender": "m"
  },
  {
    "normalForm": "hofren",
    "id": 37835,
    "translations": [ "hovercraft" ],
    "isCountable": false,
    "gender": "f"
  },
  {
    "normalForm": "hynodrwydd",
    "id": 37854,
    "translations": [ "distinction" ],
    "isCountable": false,
    "gender": "m"
  },
  {
    "normalForm": "henadur",
    "id": 37882,
    "translations": [ "alderman" ],
    "isCountable": false,
    "gender": "m"
  },
  {
    "normalForm": "hydeimledd",
    "id": 37955,
    "translations": [ "palpability" ],
    "isCountable": false,
    "gender": "m"
  },
  {
    "normalForm": "holiadur",
    "id": 38011,
    "translations": [ "questionnaire" ],
    "plural": [ "holiaduron" ],
    "gender": "m"
  },
  {
    "normalForm": "hyblygrwydd",
    "id": 38026,
    "translations": [ "flexibility" ],
    "isCountable": false,
    "gender": "m"
  },
  {
    "normalForm": "harmoni",
    "id": 38028,
    "translations": [ "harmony" ],
    "plural": [ "harmonïau" ],
    "gender": "m"
  },
  {
    "normalForm": "hunanbwysigrwydd",
    "id": 38045,
    "translations": [ "self-importance" ],
    "isCountable": false,
    "gender": "m"
  },
  {
    "normalForm": "heroin",
    "id": 38071,
    "translations": [ "heroin" ],
    "isCountable": false,
    "gender": "m"
  },
  {
    "normalForm": "hygyrchedd",
    "id": 38077,
    "translations": [ "accessibility" ],
    "isCountable": false,
    "gender": "m"
  },
  {
    "normalForm": "harnais",
    "id": 38086,
    "translations": [ "arm" ],
    "plural": [ "harneisiau" ],
    "gender": "mf"
  },
  {
    "normalForm": "hyfforddiad",
    "id": 38090,
    "translations": [ "tutorial" ],
    "plural": [ "hyfforddiadau" ],
    "gender": "m"
  },
  {
    "normalForm": "hagis",
    "id": 38103,
    "translations": [ "haggis" ],
    "plural": [ "hagisau" ],
    "gender": "m"
  },
  {
    "normalForm": "hectar",
    "id": 38107,
    "translations": [ "hectare" ],
    "plural": [ "hectars", "hectarau" ],
    "gender": "m"
  },
  {
    "normalForm": "hydref",
    "id": 38128,
    "translations": [ "autumn" ],
    "plural": [ "hydrefau" ],
    "gender": "m"
  },
  {
    "normalForm": "hunfan",
    "id": 38173,
    "translations": [ "resting place" ],
    "isCountable": false,
    "gender": "mf"
  },
  {
    "normalForm": "hunanymwybyddiaeth",
    "id": 38197,
    "translations": [ "self-consciousness" ],
    "isCountable": false,
    "gender": "f"
  },
  {
    "normalForm": "hydrogen",
    "id": 38254,
    "translations": [ "hydrogen" ],
    "isCountable": false,
    "gender": "m"
  },
  {
    "normalForm": "hwyaden",
    "id": 38285,
    "translations": [ "duck" ],
    "plural": [ "hwyaid" ],
    "gender": "f"
  },
  {
    "normalForm": "helmed",
    "id": 38324,
    "translations": [ "helmet" ],
    "plural": [ "helmedi", "helmedau" ],
    "gender": "f"
  },
  {
    "normalForm": "hiraeth",
    "id": 38337,
    "translations": [ "longing" ],
    "plural": [ "hiraethau" ],
    "gender": "m"
  },
  {
    "normalForm": "hunanamddiffyn",
    "id": 38341,
    "translations": [ "self-defence" ],
    "isCountable": false,
    "gender": "m"
  },
  {
    "normalForm": "hynaf",
    "id": 38349,
    "translations": [ "head" ],
    "plural": [ "hynafiaid" ],
    "gender": "m"
  },
  {
    "normalForm": "hoci",
    "id": 38358,
    "translations": [ "hockey" ],
    "isCountable": false,
    "gender": "m"
  },
  {
    "normalForm": "hawster",
    "id": 38374,
    "translations": [ "ease" ],
    "plural": [ "hawsterau" ],
    "gender": "m"
  },
  {
    "normalForm": "hobi",
    "id": 38376,
    "translations": [ "robin redbreast" ],
    "plural": [ "hobïod", "hobïau", "hobis" ],
    "gender": "m"
  },
  {
    "normalForm": "hoen",
    "id": 38379,
    "translations": [ "joy" ],
    "plural": [ "hoenau" ],
    "gender": "mf"
  },
  {
    "normalForm": "hyfedredd",
    "id": 38381,
    "translations": [ "skill" ],
    "isCountable": false,
    "gender": "m"
  },
  {
    "normalForm": "hoed",
    "id": 38392,
    "translations": [ "longing" ],
    "isCountable": false,
    "gender": "m"
  },
  {
    "normalForm": "hoel",
    "id": 38399,
    "plural": [ "hoelon" ],
    "gender": "f"
  },
  {
    "normalForm": "hŵr",
    "id": 38431,
    "translations": [ "prostitute" ],
    "plural": [ "hwrs" ],
    "gender": "f"
  },
  {
    "normalForm": "holant",
    "id": 38471,
    "translations": [ "Holland" ],
    "isCountable": false,
    "gender": "m"
  },
  {
    "normalForm": "hysbyswr",
    "id": 38531,
    "translations": [ "informant" ],
    "plural": [ "hysbyswyr" ],
    "gender": "m"
  },
  {
    "normalForm": "hafog",
    "id": 38543,
    "translations": [ "destruction" ],
    "isCountable": false,
    "gender": "m"
  },
  {
    "normalForm": "hafod",
    "id": 38547,
    "translations": [ "farm" ],
    "plural": [ "hafodydd" ],
    "gender": "f"
  },
  {
    "normalForm": "haciwr",
    "id": 38548,
    "translations": [ "splitter" ],
    "plural": [ "hacwyr" ],
    "gender": "m"
  },
  {
    "normalForm": "hypnosis",
    "id": 38573,
    "translations": [ "hypnosis" ],
    "isCountable": false,
    "gender": "m"
  },
  {
    "normalForm": "hyrddod",
    "id": 38606,
    "isCountable": false,
    "gender": "m"
  },
  {
    "normalForm": "hunanfeirniadaeth",
    "id": 38670,
    "translations": [ "self-criticism" ],
    "isCountable": false,
    "gender": "f"
  },
  {
    "normalForm": "hunaniaeth",
    "id": 38684,
    "translations": [ "identity" ],
    "isCountable": false,
    "gender": "mf"
  },
  {
    "normalForm": "horn",
    "id": 38693,
    "translations": [ "sulk" ],
    "isCountable": false,
    "gender": "m"
  },
  {
    "normalForm": "hort",
    "id": 38700,
    "translations": [ "abuse" ],
    "plural": [ "hortiau" ],
    "gender": "f"
  },
  {
    "normalForm": "hows",
    "id": 38763,
    "translations": [ "workhouse" ],
    "isCountable": false,
    "gender": "m"
  },
  {
    "normalForm": "hwligan",
    "id": 38787,
    "translations": [ "hooligan" ],
    "isCountable": false,
    "gender": "m"
  },
  {
    "normalForm": "hepiant",
    "id": 38800,
    "translations": [ "doze" ],
    "plural": [ "hepiannau" ],
    "gender": "m"
  },
  {
    "normalForm": "hoywder",
    "id": 38814,
    "translations": [ "beauty" ],
    "isCountable": false,
    "gender": "m"
  },
  {
    "normalForm": "hysbyseb",
    "id": 38822,
    "translations": [ "advertisement" ],
    "plural": [ "hysbysebion", "hysbysebau" ],
    "gender": "f"
  },
  {
    "normalForm": "hebog",
    "id": 38825,
    "translations": [ "hawk" ],
    "isCountable": false,
    "gender": "mf"
  },
  {
    "normalForm": "hoywdeb",
    "id": 38869,
    "translations": [ "sprightliness" ],
    "isCountable": false,
    "gender": "m"
  },
  {
    "normalForm": "hypnotydd",
    "id": 38876,
    "translations": [ "hypnotist" ],
    "plural": [ "hypnotyddion" ],
    "gender": "m"
  },
  {
    "normalForm": "hanesiaeth",
    "id": 38893,
    "translations": [ "history" ],
    "isCountable": false,
    "gender": "f"
  },
  {
    "normalForm": "hoffeicon",
    "id": 38953,
    "translations": [ "favicon" ],
    "plural": [ "hoffeiconau" ],
    "gender": "m"
  },
  {
    "normalForm": "hepgor",
    "id": 38995,
    "translations": [ "expendable thing" ],
    "plural": [ "hepgorion" ],
    "gender": "m"
  },
  {
    "normalForm": "heddlu",
    "id": 38997,
    "translations": [ "police force" ],
    "plural": [ "heddluoedd" ],
    "gender": "m"
  },
  {
    "normalForm": "heilydd",
    "id": 39052,
    "translations": [ "waiter" ],
    "isCountable": false,
    "gender": "m"
  },
  {
    "normalForm": "heptagon",
    "id": 39072,
    "translations": [ "heptagon" ],
    "plural": [ "heptagonau" ],
    "gender": "m"
  },
  {
    "normalForm": "hilydd",
    "id": 39074,
    "translations": [ "progenitor" ],
    "isCountable": false,
    "gender": "m"
  },
  {
    "normalForm": "hygrededd",
    "id": 39080,
    "translations": [ "credibility" ],
    "isCountable": false,
    "gender": "m"
  },
  {
    "normalForm": "hẁb",
    "id": 39097,
    "translations": [ "push" ],
    "plural": [ "hybiau" ],
    "gender": "mf"
  },
  {
    "normalForm": "hanner troad",
    "id": 39110,
    "translations": [ "half turn" ],
    "isCountable": false,
    "gender": "m"
  },
  {
    "normalForm": "hosan",
    "id": 39124,
    "translations": [ "stocking" ],
    "plural": [ "hosanau", "sanau" ],
    "gender": "f"
  },
  {
    "normalForm": "hólides",
    "id": 39130,
    "translations": [ "holiday" ],
    "plural": [ "hólides", "holides" ],
    "gender": "m"
  },
  {
    "normalForm": "hectolitr",
    "id": 39158,
    "translations": [ "hectolitre" ],
    "plural": [ "hectolitrau" ],
    "gender": "m"
  },
  {
    "normalForm": "hynodion",
    "id": 39182,
    "translations": [ "curiosity" ],
    "plural": [ "hynodion" ],
    "gender": "m"
  },
  {
    "normalForm": "hirgylch",
    "id": 39183,
    "translations": [ "ellipse" ],
    "plural": [ "hirgylchau" ],
    "gender": "m"
  },
  {
    "normalForm": "hilyddiaeth",
    "id": 39223,
    "translations": [ "racialism" ],
    "isCountable": false,
    "gender": "f"
  },
  {
    "normalForm": "hafaliad llinol",
    "id": 39258,
    "translations": [ "linear equation" ],
    "plural": [ "hafaliadau llinol" ],
    "gender": "m"
  },
  {
    "normalForm": "haint",
    "id": 39322,
    "translations": [ "infection" ],
    "plural": [ "heintiau" ],
    "gender": "f"
  },
  {
    "normalForm": "haenlun",
    "id": 39324,
    "translations": [ "layout" ],
    "plural": [ "haenluniau" ],
    "gender": "m"
  },
  {
    "normalForm": "hedyn",
    "id": 39325,
    "translations": [ "seed" ],
    "plural": [ "hadau" ],
    "gender": "m"
  },
  {
    "normalForm": "hysbysai",
    "id": 39339,
    "translations": [ "telegraph" ],
    "plural": [ "hysbyseion" ],
    "gender": "m"
  },
  {
    "normalForm": "hoffter",
    "id": 39380,
    "translations": [ "preference" ],
    "plural": [ "hoffterau" ],
    "gender": "m"
  },
  {
    "normalForm": "haearn",
    "id": 39494,
    "translations": [ "piece of iron" ],
    "plural": [ "heyrn", "haearns" ],
    "gender": "m"
  },
  {
    "normalForm": "hynafiaethydd",
    "id": 39522,
    "translations": [ "antiquarian" ],
    "isCountable": false,
    "gender": "m"
  },
  {
    "normalForm": "hoywedd",
    "id": 39530,
    "translations": [ "distinction" ],
    "isCountable": false,
    "gender": "m"
  },
  {
    "normalForm": "homograff",
    "id": 39546,
    "translations": [ "homograph" ],
    "plural": [ "homograffau" ],
    "gender": "m"
  },
  {
    "normalForm": "haemoglobin",
    "id": 39555,
    "translations": [ "hæmoglobin" ],
    "isCountable": false,
    "gender": "m"
  },
  {
    "normalForm": "henebyn",
    "id": 39560,
    "translations": [ "antique" ],
    "plural": [ "henebion" ],
    "gender": "m"
  },
  {
    "normalForm": "hirdymor",
    "id": 39590,
    "translations": [ "long-term" ],
    "isCountable": false,
    "gender": "m"
  },
  {
    "normalForm": "homeopathi",
    "id": 39637,
    "translations": [ "homeopathy" ],
    "isCountable": false,
    "gender": "m"
  },
  {
    "normalForm": "hendre",
    "id": 39682,
    "translations": [ "old town" ],
    "isCountable": false,
    "gender": "f"
  },
  {
    "normalForm": "haprif",
    "id": 39733,
    "translations": [ "random number" ],
    "plural": [ "haprifau" ],
    "gender": "m"
  },
  {
    "normalForm": "halogen",
    "id": 39806,
    "translations": [ "halogen" ],
    "plural": [ "halogenau" ],
    "gender": "m"
  },
  {
    "normalForm": "hollbresenoldeb",
    "id": 39837,
    "translations": [ "omnipresence" ],
    "isCountable": false,
    "gender": "m"
  },
  {
    "normalForm": "heuad",
    "id": 39839,
    "translations": [ "spreading" ],
    "isCountable": false,
    "gender": "m"
  },
  {
    "normalForm": "hashish",
    "id": 39902,
    "translations": [ "hashish" ],
    "isCountable": false,
    "gender": "m"
  },
  {
    "normalForm": "hysbysfwrdd",
    "id": 39949,
    "translations": [ "notice board" ],
    "plural": [ "hysbysfyrddau" ],
    "gender": "m"
  },
  {
    "normalForm": "hapusrwydd",
    "id": 40003,
    "translations": [ "happiness" ],
    "isCountable": false,
    "gender": "m"
  },
  {
    "normalForm": "hunanoldeb",
    "id": 40007,
    "translations": [ "identity" ],
    "isCountable": false,
    "gender": "m"
  },
  {
    "normalForm": "haeriad",
    "id": 40033,
    "translations": [ "assertion" ],
    "isCountable": false,
    "gender": "m"
  },
  {
    "normalForm": "handlen",
    "id": 40046,
    "translations": [ "handle" ],
    "isCountable": false,
    "gender": "f"
  },
  {
    "normalForm": "heuwr",
    "id": 40056,
    "translations": [ "sower" ],
    "isCountable": false,
    "gender": "m"
  },
  {
    "normalForm": "hunanfyfyrdod",
    "id": 40076,
    "translations": [ "self-reflection" ],
    "isCountable": false,
    "gender": "m"
  },
  {
    "normalForm": "horni",
    "id": 40152,
    "translations": [ "policeman" ],
    "plural": [ "hornis" ],
    "gender": "m"
  },
  {
    "normalForm": "herpes",
    "id": 40186,
    "translations": [ "herpe" ],
    "isCountable": false,
    "gender": "m"
  },
  {
    "normalForm": "hunedd",
    "id": 40228,
    "isCountable": false,
    "gender": "m"
  },
  {
    "normalForm": "haen",
    "id": 40257,
    "translations": [ "stratum" ],
    "plural": [ "haenennau", "haenau" ],
    "gender": "f"
  },
  {
    "normalForm": "honiad",
    "id": 40269,
    "translations": [ "allegation" ],
    "plural": [ "honiadau" ],
    "gender": "m"
  },
  {
    "normalForm": "hafn",
    "id": 40325,
    "translations": [ "cleft" ],
    "plural": [ "hafnau" ],
    "gender": "mf"
  },
  {
    "normalForm": "hair",
    "id": 40358,
    "translations": [ "hair" ],
    "plural": [ "hair" ],
    "gender": "m"
  },
  {
    "normalForm": "haid",
    "id": 40375,
    "translations": [ "swarm" ],
    "plural": [ "heidiau" ],
    "gender": "f"
  },
  {
    "normalForm": "hunanbarch",
    "id": 40378,
    "translations": [ "self-respect" ],
    "isCountable": false,
    "gender": "m"
  },
  {
    "normalForm": "hain",
    "id": 40381,
    "translations": [ "fruit" ],
    "isCountable": false,
    "gender": "f"
  }
]
