[
  {
    "normalForm": "cariadus",
    "id": 10004,
    "translations": [ "loving", "affectionate", "kind", "loved", "beloved" ],
    "etymology": "From cariad (“love; beloved one”) + -us"
  },
  {
    "normalForm": "cenedlaethol",
    "id": 10005,
    "translations": "national"
  }
]