[
  {
    "normalForm": "llosg",
    "id": 10012,
    "stem": "llosg",
    "equative": "llosged",
    "etymology": "From Middle Welsh llosg, from Old Welsh losc, from Proto-Celtic *lowsk-, from Proto-Indo-European *lewksḱ-, from *lewk- (“bright”). Cognate of Old Irish losc and Old Cornish losc."
  }
]