[
  {
    "normalForm": "mawr",
    "id": 4670,
    "translations": "big",
    "equative": "cymaint",
    "comparative": "mwy",
    "superlative": "mwyaf"
  },
  {
    "normalForm": "meddal",
    "id": 10013,
    "translations": "soft"
  }
]